ApplicationMgr                         INFO Application Manager Finalized successfully
ApplicationMgr                         INFO Application Manager Terminated successfully
CloneKillerMatch_a70c4574              INFO Number of counters : 2
 |    Counter                                      |     #     |    sum     | mean/eff^* | rms/err^*  |     min     |     max     |
 | "nTracksInput"                                  |      3325 |      77446 |     23.292 |
 | "nTracksSelected"                               |      3325 |      77446 |     23.292 |
DefaultGECFilter                       INFO Number of counters : 2
 |    Counter                                      |     #     |    sum     | mean/eff^* | rms/err^*  |     min     |     max     |
 | "Nb Events Processed"                           |      3333 |
 | "Nb events removed"                             |         8 |
HLTControlFlowMgr                      INFO Number of counters : 1
 |    Counter                                      |     #     |    sum     | mean/eff^* | rms/err^*  |     min     |     max     |
 | "Processed events"                              |    120000 |
PrForwardTrackingVelo_d84bc276         INFO Number of counters : 10
 |    Counter                                      |     #     |    sum     | mean/eff^* | rms/err^*  |     min     |     max     |
 | "Accepted input tracks"                         |      3325 |     343007 |     103.16 |
 | "Created long tracks"                           |      3325 |       6008 |     1.8069 |
 | "Input tracks"                                  |      3325 |     357447 |     107.50 |
 | "Number of candidate bins per track"            |    343007 |     356443 |     1.0392 |     2.6051 |      0.0000 |      38.000 |
 | "Number of complete candidates/track 1st Loop"  |    107286 |       4321 |   0.040276 |    0.19797 |      0.0000 |      2.0000 |
 | "Number of complete candidates/track 2nd Loop"  |    105115 |       1861 |   0.017704 |    0.13238 |      0.0000 |      2.0000 |
 | "Number of x candidates per track 1st Loop"     |    107286 |      42252 |    0.39383 |    0.74738 |
 | "Number of x candidates per track 2nd Loop"     |    105115 |     162978 |     1.5505 |     2.1972 |
 | "Percentage second loop execution"              |    107286 |     105115 |    0.97976 |
 | "Removed duplicates"                            |      3325 |        146 |   0.043910 |
PrHybridSeeding_d6726025               INFO Number of counters : 21
 |    Counter                                      |     #     |    sum     | mean/eff^* | rms/err^*  |     min     |     max     |
 | "Created T2x1 three-hit combinations in case 0" |   1971930 |    1114448 |    0.56516 |    0.54759 |      0.0000 |      4.0000 |
 | "Created T2x1 three-hit combinations in case 1" |   1029992 |     577901 |    0.56107 |    0.54512 |      0.0000 |      4.0000 |
 | "Created T2x1 three-hit combinations in case 2" |    856407 |     464404 |    0.54227 |    0.55098 |      0.0000 |      5.0000 |
 | "Created XZ tracks (part 0)"                    |      9975 |     176014 |     17.646 |     21.508 |      0.0000 |      289.00 |
 | "Created XZ tracks (part 1)"                    |      9975 |     185370 |     18.583 |     21.679 |      0.0000 |      290.00 |
 | "Created XZ tracks in case 0"                   |      6650 |     172551 |     25.948 |     26.117 |      0.0000 |      290.00 |
 | "Created XZ tracks in case 1"                   |      6650 |     118768 |     17.860 |     20.213 |      0.0000 |      272.00 |
 | "Created XZ tracks in case 2"                   |      6650 |      70065 |     10.536 |     13.785 |      0.0000 |      190.00 |
 | "Created full hit combinations in case 0"       |    256172 |     256172 |     1.0000 |     0.0000 |      1.0000 |      1.0000 |
 | "Created full hit combinations in case 1"       |    130110 |     130110 |     1.0000 |     0.0000 |      1.0000 |      1.0000 |
 | "Created full hit combinations in case 2"       |     87162 |      87162 |     1.0000 |     0.0000 |      1.0000 |      1.0000 |
 | "Created seed tracks"                           |      6650 |     147579 |     22.192 |     12.707 |      0.0000 |      107.00 |
 | "Created seed tracks (part 0)"                  |      3325 |      89033 |     26.777 |     15.852 |      0.0000 |      111.00 |
 | "Created seed tracks (part 1)"                  |      3325 |      94531 |     28.430 |     16.639 |      0.0000 |      128.00 |
 | "Created seed tracks in case 0"                 |      6650 |      90148 |     13.556 |     7.9853 |      0.0000 |      67.000 |
 | "Created seed tracks in case 1"                 |      6650 |     146266 |     21.995 |     12.609 |      0.0000 |      103.00 |
 | "Created seed tracks in case 2"                 |      6650 |     174617 |     26.258 |     15.452 |      0.0000 |      123.00 |
 | "Created seed tracks in recovery step"          |      3325 |       8947 |     2.6908 |     2.5349 |      0.0000 |      19.000 |
 | "Created two-hit combinations in case 0"        |    853753 |    9653307 |     11.307 |     9.2554 |      0.0000 |      109.00 |
 | "Created two-hit combinations in case 1"        |    926857 |    5690023 |     6.1391 |     5.1416 |      0.0000 |      76.000 |
 | "Created two-hit combinations in case 2"        |    764989 |    5067416 |     6.6242 |     5.7788 |      0.0000 |      113.00 |
PrKalmanFilterForward_a04c6588         INFO Number of counters : 6
 |    Counter                                      |     #     |    sum     | mean/eff^* | rms/err^*  |     min     |     max     |
 | "Pre outlier chi2 cut"                          |       826 |
 | "chi2 cut"                                      |      1236 |
 | "nIterations"                                   |      6008 |      14518 |     2.4164 |
 | "nOutlierIterations"                            |      5182 |       4868 |    0.93941 |
 | "nTracksInput"                                  |      3325 |       6008 |     1.8069 |
 | "nTracksOutput"                                 |      3325 |       3946 |     1.1868 |
PrKalmanFilterMatch_1884fdb0           INFO Number of counters : 7
 |    Counter                                      |     #     |    sum     | mean/eff^* | rms/err^*  |     min     |     max     |
 | "Add states failed"                             |         1 |          0 |     0.0000 |
 | "Pre outlier chi2 cut"                          |      1106 |
 | "chi2 cut"                                      |      5039 |
 | "nIterations"                                   |     77446 |     158172 |     2.0424 |
 | "nOutlierIterations"                            |     76340 |      47900 |    0.62746 |
 | "nTracksInput"                                  |      3325 |      77446 |     23.292 |
 | "nTracksOutput"                                 |      3325 |      71300 |     21.444 |
PrMatchNN_4381b12a                     INFO Number of counters : 3
 |    Counter                                      |     #     |    sum     | mean/eff^* | rms/err^*  |     min     |     max     |
 | "#MatchingChi2"                                 |      3325 |   891287.6 |     268.06 |
 | "#MatchingMLP"                                  |    103563 |   92561.38 |    0.89377 |
 | "#MatchingTracks"                               |      3325 |      77446 |     23.292 |
PrResidualSciFiHits_7ec94539           INFO Number of counters : 1
 |    Counter                                      |     #     |    sum     | mean/eff^* | rms/err^*  |     min     |     max     |
 | "Empty Long tracks"                             |         2 |
PrStoreSciFiHits_fb0eba02              INFO Number of counters : 25
 |    Counter                                      |     #     |    sum     | mean/eff^* | rms/err^*  |     min     |     max     |
 | "Average X in T1U"                              |    861338 |-2.152963e+07 |    -24.996 |     1170.9 |     -2656.1 |      2657.0 |
 | "Average X in T1V"                              |   1002464 |-8.243819e+07 |    -82.236 |     1180.0 |     -2657.1 |      2656.6 |
 | "Average X in T1X1"                             |    853753 |6.490998e+07 |     76.029 |     1179.5 |     -2646.6 |      2647.0 |
 | "Average X in T1X2"                             |    985985 |   -6690301 |    -6.7854 |     1121.2 |     -2647.0 |      2647.1 |
 | "Average X in T2U"                              |    916440 |1.800332e+07 |     19.645 |     1146.9 |     -2655.5 |      2657.4 |
 | "Average X in T2V"                              |    928015 |3.426577e+07 |     36.924 |     1148.3 |     -2655.2 |      2656.5 |
 | "Average X in T2X1"                             |    858882 |1.237442e+07 |     14.408 |     1153.0 |     -2645.8 |      2646.6 |
 | "Average X in T2X2"                             |    947688 |1.295717e+07 |     13.672 |     1130.3 |     -2645.4 |      2646.9 |
 | "Average X in T3U"                              |    996162 |   -7144010 |    -7.1715 |     1335.6 |     -3187.3 |      3190.1 |
 | "Average X in T3V"                              |    961187 |6.975202e+07 |     72.569 |     1353.2 |     -3189.3 |      3189.8 |
 | "Average X in T3X1"                             |    924077 |   -5209613 |    -5.6376 |     1338.2 |     -3176.8 |      3177.7 |
 | "Average X in T3X2"                             |   1123217 |-1.033823e+08 |    -92.041 |     1388.9 |     -3177.2 |      3178.4 |
 | "Hits in T1U"                                   |     13300 |     861338 |     64.762 |     32.192 |      2.0000 |      230.00 |
 | "Hits in T1V"                                   |     13300 |    1002464 |     75.373 |     34.790 |      4.0000 |      241.00 |
 | "Hits in T1X1"                                  |     13300 |     853753 |     64.192 |     32.369 |      2.0000 |      229.00 |
 | "Hits in T1X2"                                  |     13300 |     985985 |     74.134 |     34.814 |      4.0000 |      271.00 |
 | "Hits in T2U"                                   |     13300 |     916440 |     68.905 |     32.905 |      3.0000 |      219.00 |
 | "Hits in T2V"                                   |     13300 |     928015 |     69.776 |     33.621 |      2.0000 |      225.00 |
 | "Hits in T2X1"                                  |     13300 |     858882 |     64.578 |     31.048 |      3.0000 |      223.00 |
 | "Hits in T2X2"                                  |     13300 |     947688 |     71.255 |     34.177 |      2.0000 |      224.00 |
 | "Hits in T3U"                                   |     13300 |     996162 |     74.899 |     34.673 |      4.0000 |      221.00 |
 | "Hits in T3V"                                   |     13300 |     961187 |     72.270 |     34.286 |      3.0000 |      240.00 |
 | "Hits in T3X1"                                  |     13300 |     924077 |     69.479 |     32.450 |      4.0000 |      235.00 |
 | "Hits in T3X2"                                  |     13300 |    1123217 |     84.452 |     38.023 |      4.0000 |      287.00 |
 | "Total number of hits"                          |      3325 |1.135921e+07 |     3416.3 |     1480.1 |      330.00 |      8592.0 |
RichPixelClustering_d84c4b43           INFO Number of counters : 1
 |    Counter                                      |     #     |    sum     | mean/eff^* | rms/err^*  |     min     |     max     |
 | "No DePD object found for decoded channel ID"   |      3680 |
Streaming_filter                       INFO Number of counters : 1
 |    Counter                                      |     #     |    sum     | mean/eff^* | rms/err^*  |     min     |     max     |
 |*"Cut selection efficiency"                      |    120000 |       3333 |( 2.777500 +- 0.04743728)% |
TBTCMatch_fd8c26f8                     INFO Number of counters : 3
 |    Counter                                      |     #     |    sum     | mean/eff^* | rms/err^*  |     min     |     max     |
 |*"BadInput"                                      |     71148 |          0 |( 0.000000 +- 0.000000)% |
 |*"FitFailed"                                     |     71148 |          0 |( 0.000000 +- 0.000000)% |
 | "FittedBefore"                                  |     71148 |
TBTC_Forward_bdd896e3                  INFO Number of counters : 3
 |    Counter                                      |     #     |    sum     | mean/eff^* | rms/err^*  |     min     |     max     |
 |*"BadInput"                                      |      3940 |          0 |( 0.000000 +- 0.000000)% |
 |*"FitFailed"                                     |      3940 |          0 |( 0.000000 +- 0.000000)% |
 | "FittedBefore"                                  |      3940 |
VeloRetinaClusterTrackingSIMD_3c...    INFO Number of counters : 2
 |    Counter                                      |     #     |    sum     | mean/eff^* | rms/err^*  |     min     |     max     |
 | "Nb of Produced Clusters"                       |      3325 |    5609228 |     1687.0 |
 | "Nb of Produced Tracks"                         |      3325 |     604822 |     181.90 |
