RichRefCalibLong                       INFO ======================================================================================================================
RichRefCalibLong                       INFO Finalizing
RichRefCalibLong                       INFO Starting Final n-1 calibration for run 251910
TCanvas::MakeDefCanvas                 INFO  created default TCanvas with name c1
RichRefCalibLong                       INFO Rich1Gas fit SUCCESSFUL :-
RichRefCalibLong                       INFO   Gaus Const   = +4.40e+03 +- 2.50e+01
RichRefCalibLong                       INFO   Gaus Mean    = +1.50e-04 +- 6.82e-06
RichRefCalibLong                       INFO   Gaus Sigma   = +9.96e-04 +- 7.09e-06
RichRefCalibLong                       INFO   Gaus Asym    = +2.25e-01 +- 2.30e-02
RichRefCalibLong                       INFO   Bkg Par 0    = +3.32e+03 +- 1.91e+01
RichRefCalibLong                       INFO   Bkg Par 1    = -1.17e+04 +- 5.59e+03
RichRefCalibLong                       INFO   Bkg Par 2    = -4.05e+06 +- 1.00e+06
RichRefCalibLong                       INFO   Bkg Par 3    = +8.28e+08 +- 2.62e+08
RichRefCalibLong                       INFO Rich1Gas Scale Factor | Current [ 1.0289e+00 ] -> Update [ 1.0348e+00 +- 2.67e-04 ]
RichRefCalibLong                       INFO Rich2Gas fit SUCCESSFUL :-
RichRefCalibLong                       INFO   Gaus Const   = +5.26e+02 +- 9.67e+00
RichRefCalibLong                       INFO   Gaus Mean    = +2.94e-05 +- 1.29e-05
RichRefCalibLong                       INFO   Gaus Sigma   = +6.12e-04 +- 1.38e-05
RichRefCalibLong                       INFO   Gaus Asym    = +1.44e-01 +- 7.24e-02
RichRefCalibLong                       INFO   Bkg Par 0    = +5.56e+02 +- 7.26e+00
RichRefCalibLong                       INFO   Bkg Par 1    = +6.93e+03 +- 3.04e+03
RichRefCalibLong                       INFO   Bkg Par 2    = +1.43e+06 +- 9.73e+05
RichRefCalibLong                       INFO   Bkg Par 3    = +4.90e+08 +- 3.54e+08
RichRefCalibLong                       INFO Rich2Gas Scale Factor | Current [ 9.9374e-01 ] -> Update [ 9.9564e-01 +- 8.35e-04 ]
RichRefCalibLong                       INFO Finished Final n-1 calibration for run 251910
RichRefCalibLong                       INFO Finalized
ApplicationMgr                         INFO Application Manager Finalized successfully
ApplicationMgr                         INFO Application Manager Terminated successfully
CloneKillerMatch_a70c4574              INFO Number of counters : 2
 |    Counter                                      |     #     |    sum     | mean/eff^* | rms/err^*  |     min     |     max     |
 | "nTracksInput"                                  |      5000 |       5482 |     1.0964 |
 | "nTracksSelected"                               |      5000 |       5482 |     1.0964 |
DefaultGECFilter                       INFO Number of counters : 1
 |    Counter                                      |     #     |    sum     | mean/eff^* | rms/err^*  |     min     |     max     |
 | "Nb Events Processed"                           |      5000 |
HLTControlFlowMgr                      INFO Number of counters : 1
 |    Counter                                      |     #     |    sum     | mean/eff^* | rms/err^*  |     min     |     max     |
 | "Processed events"                              |      5000 |
PrForwardTrackingVelo_d84bc276         INFO Number of counters : 11
 |    Counter                                      |     #     |    sum     | mean/eff^* | rms/err^*  |     min     |     max     |
 | "Accepted input tracks"                         |      4229 |      68010 |     16.082 |
 | "Created long tracks"                           |      4229 |        682 |    0.16127 |
 | "Empty input tracks"                            |       771 |
 | "Input tracks"                                  |      4229 |      69502 |     16.435 |
 | "Number of candidate bins per track"            |     68010 |      14418 |    0.21200 |     1.1691 |      0.0000 |      33.000 |
 | "Number of complete candidates/track 1st Loop"  |      5968 |        441 |   0.073894 |    0.26224 |      0.0000 |      2.0000 |
 | "Number of complete candidates/track 2nd Loop"  |      5731 |        246 |   0.042924 |    0.20269 |      0.0000 |      1.0000 |
 | "Number of x candidates per track 1st Loop"     |      5968 |       1648 |    0.27614 |    0.58651 |
 | "Number of x candidates per track 2nd Loop"     |      5731 |       6196 |     1.0811 |     1.7619 |
 | "Percentage second loop execution"              |      5968 |       5731 |    0.96029 |
 | "Removed duplicates"                            |      4229 |          4 | 0.00094585 |
PrHybridSeeding_d6726025               INFO Number of counters : 21
 |    Counter                                      |     #     |    sum     | mean/eff^* | rms/err^*  |     min     |     max     |
 | "Created T2x1 three-hit combinations in case 0" |    839904 |     489688 |    0.58303 |    0.53512 |      0.0000 |      4.0000 |
 | "Created T2x1 three-hit combinations in case 1" |    453557 |     269621 |    0.59446 |    0.52867 |      0.0000 |      4.0000 |
 | "Created T2x1 three-hit combinations in case 2" |    404799 |     232043 |    0.57323 |    0.53456 |      0.0000 |      4.0000 |
 | "Created XZ tracks (part 0)"                    |     15000 |     125297 |     8.3531 |     11.663 |      0.0000 |      281.00 |
 | "Created XZ tracks (part 1)"                    |     15000 |     113516 |     7.5677 |     10.547 |      0.0000 |      197.00 |
 | "Created XZ tracks in case 0"                   |     10000 |     103690 |     10.369 |     13.254 |      0.0000 |      281.00 |
 | "Created XZ tracks in case 1"                   |     10000 |      79570 |     7.9570 |     10.921 |      0.0000 |      268.00 |
 | "Created XZ tracks in case 2"                   |     10000 |      55553 |     5.5553 |     8.0547 |      0.0000 |      190.00 |
 | "Created full hit combinations in case 0"       |    131806 |     131806 |     1.0000 |     0.0000 |      1.0000 |      1.0000 |
 | "Created full hit combinations in case 1"       |     83852 |      83852 |     1.0000 |     0.0000 |      1.0000 |      1.0000 |
 | "Created full hit combinations in case 2"       |     62678 |      62678 |     1.0000 |     0.0000 |      1.0000 |      1.0000 |
 | "Created seed tracks"                           |     10000 |     104019 |     10.402 |     9.3786 |      0.0000 |      89.000 |
 | "Created seed tracks (part 0)"                  |      5000 |      73630 |     14.726 |     13.468 |      0.0000 |      119.00 |
 | "Created seed tracks (part 1)"                  |      5000 |      69624 |     13.925 |     12.655 |      0.0000 |      101.00 |
 | "Created seed tracks in case 0"                 |     10000 |      65385 |     6.5385 |     6.0523 |      0.0000 |      48.000 |
 | "Created seed tracks in case 1"                 |     10000 |     109340 |     10.934 |     9.8980 |      0.0000 |      83.000 |
 | "Created seed tracks in case 2"                 |     10000 |     139413 |     13.941 |     12.665 |      0.0000 |      116.00 |
 | "Created seed tracks in recovery step"          |      5000 |       3841 |    0.76820 |     1.2911 |      0.0000 |      13.000 |
 | "Created two-hit combinations in case 0"        |    655644 |    5037751 |     7.6837 |     7.3882 |      0.0000 |      69.000 |
 | "Created two-hit combinations in case 1"        |    636592 |    2870938 |     4.5099 |     4.4220 |      0.0000 |      56.000 |
 | "Created two-hit combinations in case 2"        |    597846 |    2861591 |     4.7865 |     4.8325 |      0.0000 |      96.000 |
PrKalmanFilterForward_a04c6588         INFO Number of counters : 6
 |    Counter                                      |     #     |    sum     | mean/eff^* | rms/err^*  |     min     |     max     |
 | "Pre outlier chi2 cut"                          |        67 |
 | "chi2 cut"                                      |        60 |
 | "nIterations"                                   |       682 |       1672 |     2.4516 |
 | "nOutlierIterations"                            |       615 |        313 |    0.50894 |
 | "nTracksInput"                                  |      5000 |        682 |    0.13640 |
 | "nTracksOutput"                                 |      5000 |        555 |    0.11100 |
PrKalmanFilterMatch_1884fdb0           INFO Number of counters : 6
 |    Counter                                      |     #     |    sum     | mean/eff^* | rms/err^*  |     min     |     max     |
 | "Pre outlier chi2 cut"                          |        31 |
 | "chi2 cut"                                      |       334 |
 | "nIterations"                                   |      5482 |      11278 |     2.0573 |
 | "nOutlierIterations"                            |      5451 |       2236 |    0.41020 |
 | "nTracksInput"                                  |      5000 |       5482 |     1.0964 |
 | "nTracksOutput"                                 |      5000 |       5117 |     1.0234 |
PrMatchNN_4381b12a                     INFO Number of counters : 3
 |    Counter                                      |     #     |    sum     | mean/eff^* | rms/err^*  |     min     |     max     |
 | "#MatchingChi2"                                 |      4172 |   27790.38 |     6.6612 |
 | "#MatchingMLP"                                  |      9423 |   8902.609 |    0.94477 |
 | "#MatchingTracks"                               |      4172 |       5482 |     1.3140 |
PrResidualSciFiHits_7ec94539           INFO Number of counters : 1
 |    Counter                                      |     #     |    sum     | mean/eff^* | rms/err^*  |     min     |     max     |
 | "Empty Long tracks"                             |      2556 |
PrStoreSciFiHits_fb0eba02              INFO Number of counters : 25
 |    Counter                                      |     #     |    sum     | mean/eff^* | rms/err^*  |     min     |     max     |
 | "Average X in T1U"                              |    567219 |-6.883843e+07 |    -121.36 |     1147.9 |     -2656.2 |      2657.0 |
 | "Average X in T1V"                              |    662511 |-1.072452e+08 |    -161.88 |     1156.2 |     -2657.0 |      2656.6 |
 | "Average X in T1X1"                             |    655644 |-2.659714e+07 |    -40.566 |     1111.0 |     -2646.6 |      2647.0 |
 | "Average X in T1X2"                             |    674054 |-2.018099e+07 |    -29.940 |     1056.0 |     -2647.0 |      2647.1 |
 | "Average X in T2U"                              |    650380 |   -2076269 |    -3.1924 |     1087.5 |     -2655.5 |      2656.9 |
 | "Average X in T2V"                              |    688360 |   -9227259 |    -13.405 |     1099.3 |     -2655.3 |      2656.5 |
 | "Average X in T2X1"                             |    619546 |   -2221895 |    -3.5863 |     1094.1 |     -2645.8 |      2646.6 |
 | "Average X in T2X2"                             |    638858 |   -7666129 |    -12.000 |     1086.6 |     -2645.4 |      2646.9 |
 | "Average X in T3U"                              |    716639 |    3331021 |     4.6481 |     1263.5 |     -3187.5 |      3190.1 |
 | "Average X in T3V"                              |    745929 |-5.115745e+07 |    -68.582 |     1214.9 |     -3189.3 |      3189.7 |
 | "Average X in T3X1"                             |    687399 |-2.080339e+07 |    -30.264 |     1265.4 |     -3176.8 |      3177.5 |
 | "Average X in T3X2"                             |    781921 |1.320058e+07 |     16.882 |     1252.4 |     -3177.2 |      3178.4 |
 | "Hits in T1U"                                   |     20000 |     567219 |     28.361 |     25.476 |      0.0000 |      197.00 |
 | "Hits in T1V"                                   |     20000 |     662511 |     33.126 |     25.213 |      0.0000 |      210.00 |
 | "Hits in T1X1"                                  |     20000 |     655644 |     32.782 |     25.596 |      0.0000 |      167.00 |
 | "Hits in T1X2"                                  |     20000 |     674054 |     33.703 |     25.550 |      0.0000 |      181.00 |
 | "Hits in T2U"                                   |     20000 |     650380 |     32.519 |     25.338 |      0.0000 |      237.00 |
 | "Hits in T2V"                                   |     20000 |     688360 |     34.418 |     27.364 |      0.0000 |      197.00 |
 | "Hits in T2X1"                                  |     20000 |     619546 |     30.977 |     24.361 |      0.0000 |      176.00 |
 | "Hits in T2X2"                                  |     20000 |     638858 |     31.943 |     25.766 |      0.0000 |      184.00 |
 | "Hits in T3U"                                   |     20000 |     716639 |     35.832 |     27.345 |      0.0000 |      192.00 |
 | "Hits in T3V"                                   |     20000 |     745929 |     37.296 |     27.487 |      0.0000 |      185.00 |
 | "Hits in T3X1"                                  |     20000 |     687399 |     34.370 |     26.663 |      0.0000 |      193.00 |
 | "Hits in T3X2"                                  |     20000 |     781921 |     39.096 |     30.309 |      0.0000 |      210.00 |
 | "Total number of hits"                          |      5000 |    8088460 |     1617.7 |     1178.8 |      35.000 |      7487.0 |
RichPixelClustering_98aa0d87           INFO Number of counters : 1
 |    Counter                                      |     #     |    sum     | mean/eff^* | rms/err^*  |     min     |     max     |
 | "No DePD object found for decoded channel ID"   |      5195 |
RichRecoStatsLong                      INFO Number of counters : 6
 |    Counter                                      |     #     |    sum     | mean/eff^* | rms/err^*  |     min     |     max     |
 | "# Rich1Gas Photons"                            |      5000 |    2001649 |     400.33 |     797.01 |      0.0000 |      10083. |
 | "# Rich1Gas Segments"                           |      5000 |       5581 |     1.1162 |     1.5778 |      0.0000 |      13.000 |
 | "# Rich2Gas Photons"                            |      5000 |     239817 |     47.963 |     139.72 |      0.0000 |      2535.0 |
 | "# Rich2Gas Segments"                           |      5000 |       1446 |    0.28920 |    0.66840 |      0.0000 |      7.0000 |
 | "# Selected Tracks"                             |      5000 |       5581 |     1.1162 |     1.5778 |      0.0000 |      13.000 |
 |*"RICH selection efficiency"                     |      5625 |       5581 |( 99.21778 +- 0.1174623)% |
TBTCMatch_fd8c26f8                     INFO Number of counters : 3
 |    Counter                                      |     #     |    sum     | mean/eff^* | rms/err^*  |     min     |     max     |
 |*"BadInput"                                      |      5070 |          0 |( 0.000000 +- 0.000000)% |
 |*"FitFailed"                                     |      5070 |          0 |( 0.000000 +- 0.000000)% |
 | "FittedBefore"                                  |      5070 |
TBTC_Forward_bdd896e3                  INFO Number of counters : 3
 |    Counter                                      |     #     |    sum     | mean/eff^* | rms/err^*  |     min     |     max     |
 |*"BadInput"                                      |       555 |          0 |( 0.000000 +- 0.000000)% |
 |*"FitFailed"                                     |       555 |          0 |( 0.000000 +- 0.000000)% |
 | "FittedBefore"                                  |       555 |
VeloRetinaClusterTrackingSIMD_3c...    INFO Number of counters : 2
 |    Counter                                      |     #     |    sum     | mean/eff^* | rms/err^*  |     min     |     max     |
 | "Nb of Produced Clusters"                       |      5000 |     997893 |     199.58 |
 | "Nb of Produced Tracks"                         |      5000 |      87463 |     17.493 |
RiCKResLong                         SUCCESS 1D histograms in directory "RICH/RiCKResLong" : 128
 | ID                                            |   Title                                                                     |    #    |     Mean   |    RMS     |  Skewness  |  Kurtosis  |
 | Rich1Gas/bottom/ckResAllPerPanel              | "Rich1Gas bottom Rec-Exp CKTheta - All photons"                             | 1102898 | 3.9813e-05 | 0.00281    |  -0.028854 |   -0.76677 |
 | Rich1Gas/bottom/ckResAllPerPanelBetaCut       | "Rich1Gas bottom Rec-Exp CKTheta - All photons - 0.999900<beta"             | 1102898 | 3.9813e-05 | 0.00281    |  -0.028854 |   -0.76677 |
 | Rich1Gas/bottom/cols/ckResAllCol0             | "Rich1Gas bottom Rec-Exp CKTheta - All photons - Column 0"                  |    31   | 0.00081394 | 0.001885   |   -0.63723 |    0.96478 |
 | Rich1Gas/bottom/cols/ckResAllCol1             | "Rich1Gas bottom Rec-Exp CKTheta - All photons - Column 1"                  |   267   | 0.00062597 | 0.0015759  |   -0.30902 |     2.3298 |
 | Rich1Gas/bottom/cols/ckResAllCol10            | "Rich1Gas bottom Rec-Exp CKTheta - All photons - Column 10"                 |  30200  | 8.5523e-05 | 0.0026376  |   0.080418 |    -0.5532 |
 | Rich1Gas/bottom/cols/ckResAllCol2             | "Rich1Gas bottom Rec-Exp CKTheta - All photons - Column 2"                  |   1133  | 0.00041628 | 0.0022272  |   -0.27571 |    0.33488 |
 | Rich1Gas/bottom/cols/ckResAllCol3             | "Rich1Gas bottom Rec-Exp CKTheta - All photons - Column 3"                  |   2528  | 0.00044535 | 0.0021006  |  -0.092748 |    0.53381 |
 | Rich1Gas/bottom/cols/ckResAllCol4             | "Rich1Gas bottom Rec-Exp CKTheta - All photons - Column 4"                  |   6586  | 0.00029886 | 0.002332   |   -0.26043 |  0.0065605 |
 | Rich1Gas/bottom/cols/ckResAllCol5             | "Rich1Gas bottom Rec-Exp CKTheta - All photons - Column 5"                  |  17832  | 0.00028219 | 0.0025423  |   -0.18391 |   -0.33098 |
 | Rich1Gas/bottom/cols/ckResAllCol6             | "Rich1Gas bottom Rec-Exp CKTheta - All photons - Column 6"                  |  126332 | 0.00035433 | 0.0027686  |   -0.12798 |   -0.69936 |
 | Rich1Gas/bottom/cols/ckResAllCol7             | "Rich1Gas bottom Rec-Exp CKTheta - All photons - Column 7"                  |  373453 | 3.9085e-05 | 0.0028854  |  -0.034076 |   -0.86618 |
 | Rich1Gas/bottom/cols/ckResAllCol8             | "Rich1Gas bottom Rec-Exp CKTheta - All photons - Column 8"                  |  339004 |-9.2608e-05 | 0.00284    |  0.0014943 |   -0.81071 |
 | Rich1Gas/bottom/cols/ckResAllCol9             | "Rich1Gas bottom Rec-Exp CKTheta - All photons - Column 9"                  |  205532 | -6.892e-05 | 0.0027412  |   0.031042 |   -0.66354 |
 | Rich1Gas/ckResAll                             | "Rich1Gas Rec-Exp CKTheta - All photons"                                    | 1719111 | 4.9335e-05 | 0.0028087  |  -0.033067 |   -0.76418 |
 | Rich1Gas/ckResAllBetaCut                      | "Rich1Gas Rec-Exp CKTheta - All photons - 0.999900<beta"                    | 1719111 | 4.9335e-05 | 0.0028087  |  -0.033067 |   -0.76418 |
 | Rich1Gas/phiRec                               | "Rich1Gas Reconstructed CKPhi - All photons"                                | 1719111 |     3.2491 | 1.8087     |  -0.093334 |    -1.1749 |
 | Rich1Gas/thetaRec                             | "Rich1Gas Reconstructed CKTheta - All photons"                              | 1719111 |   0.041711 | 0.010732   |   -0.74478 |   -0.28482 |
 | Rich1Gas/top/ckResAllPerPanel                 | "Rich1Gas top Rec-Exp CKTheta - All photons"                                |  616213 | 6.6104e-05 | 0.0028064  |  -0.040473 |    -0.7594 |
 | Rich1Gas/top/ckResAllPerPanelBetaCut          | "Rich1Gas top Rec-Exp CKTheta - All photons - 0.999900<beta"                |  616213 | 6.6104e-05 | 0.0028064  |  -0.040473 |    -0.7594 |
 | Rich1Gas/top/cols/ckResAllCol0                | "Rich1Gas top Rec-Exp CKTheta - All photons - Column 0"                     |    0    |          0 | 0          |          0 |          0 |
 | Rich1Gas/top/cols/ckResAllCol1                | "Rich1Gas top Rec-Exp CKTheta - All photons - Column 1"                     |    40   | 5.4889e-05 | 0.0020057  |    0.21658 |     0.6776 |
 | Rich1Gas/top/cols/ckResAllCol10               | "Rich1Gas top Rec-Exp CKTheta - All photons - Column 10"                    |  26265  | 0.00021856 | 0.0026121  |  -0.051978 |   -0.50105 |
 | Rich1Gas/top/cols/ckResAllCol2                | "Rich1Gas top Rec-Exp CKTheta - All photons - Column 2"                     |   101   |-6.8265e-05 | 0.0014742  |    0.63469 |    0.29396 |
 | Rich1Gas/top/cols/ckResAllCol3                | "Rich1Gas top Rec-Exp CKTheta - All photons - Column 3"                     |   445   | 0.00028251 | 0.0022353  |   -0.42723 |    0.28228 |
 | Rich1Gas/top/cols/ckResAllCol4                | "Rich1Gas top Rec-Exp CKTheta - All photons - Column 4"                     |   2510  | 0.00039552 | 0.0023971  |   -0.18495 |  -0.041022 |
 | Rich1Gas/top/cols/ckResAllCol5                | "Rich1Gas top Rec-Exp CKTheta - All photons - Column 5"                     |  11537  | 0.00034986 | 0.0025546  |   -0.14432 |   -0.38976 |
 | Rich1Gas/top/cols/ckResAllCol6                | "Rich1Gas top Rec-Exp CKTheta - All photons - Column 6"                     |  60992  | 0.00024727 | 0.0027329  |  -0.092662 |    -0.6524 |
 | Rich1Gas/top/cols/ckResAllCol7                | "Rich1Gas top Rec-Exp CKTheta - All photons - Column 7"                     |  193873 | 0.00012906 | 0.0028826  |  -0.052551 |   -0.85354 |
 | Rich1Gas/top/cols/ckResAllCol8                | "Rich1Gas top Rec-Exp CKTheta - All photons - Column 8"                     |  222811 |-6.7755e-05 | 0.0028503  |  0.0021795 |   -0.82624 |
 | Rich1Gas/top/cols/ckResAllCol9                | "Rich1Gas top Rec-Exp CKTheta - All photons - Column 9"                     |  97639  |-2.8309e-05 | 0.0027254  |  -0.027692 |   -0.64092 |
 | Rich2Gas/ASide-left/ckResAllPerPanel          | "Rich2Gas ASide-left Rec-Exp CKTheta - All photons"                         |  93703  | 7.5965e-05 | 0.001866   |  -0.036456 |   -0.91365 |
 | Rich2Gas/ASide-left/ckResAllPerPanelBetaCut   | "Rich2Gas ASide-left Rec-Exp CKTheta - All photons - 0.999900<beta"         |  93703  | 7.5965e-05 | 0.001866   |  -0.036456 |   -0.91365 |
 | Rich2Gas/ASide-left/ckResAllPerPanelHTypePD   | "Rich2Gas ASide-left Rec-Exp CKTheta - All photons - H-Type PDs"            |  15233  |  7.349e-05 | 0.0017774  |  -0.038811 |   -0.76893 |
 | Rich2Gas/ASide-left/ckResAllPerPanelRTypePD   | "Rich2Gas ASide-left Rec-Exp CKTheta - All photons - R-Type PDs"            |  78470  | 7.6508e-05 | 0.0018849  |  -0.036088 |   -0.94332 |
 | Rich2Gas/ASide-left/cols/HPMT/ckResAllCol0    | "Rich2Gas ASide-left Rec-Exp CKTheta - All photons - Column 0 - H-Type"     |    0    |          0 | 0          |          0 |          0 |
 | Rich2Gas/ASide-left/cols/HPMT/ckResAllCol1    | "Rich2Gas ASide-left Rec-Exp CKTheta - All photons - Column 1 - H-Type"     |   731   |-2.9102e-05 | 0.0017156  |   -0.15833 |   -0.63942 |
 | Rich2Gas/ASide-left/cols/HPMT/ckResAllCol10   | "Rich2Gas ASide-left Rec-Exp CKTheta - All photons - Column 10 - H-Type"    |   872   | 0.00010548 | 0.0017846  |   0.011552 |   -0.84463 |
 | Rich2Gas/ASide-left/cols/HPMT/ckResAllCol11   | "Rich2Gas ASide-left Rec-Exp CKTheta - All photons - Column 11 - H-Type"    |   685   | 0.00027977 | 0.0016832  |    0.02771 |    -0.6498 |
 | Rich2Gas/ASide-left/cols/HPMT/ckResAllCol12   | "Rich2Gas ASide-left Rec-Exp CKTheta - All photons - Column 12 - H-Type"    |   349   | 0.00016919 | 0.0015898  |  -0.044144 |   -0.60758 |
 | Rich2Gas/ASide-left/cols/HPMT/ckResAllCol13   | "Rich2Gas ASide-left Rec-Exp CKTheta - All photons - Column 13 - H-Type"    |    0    |          0 | 0          |          0 |          0 |
 | Rich2Gas/ASide-left/cols/HPMT/ckResAllCol2    | "Rich2Gas ASide-left Rec-Exp CKTheta - All photons - Column 2 - H-Type"     |   1314  |-7.8885e-06 | 0.0017128  |  -0.040272 |   -0.61091 |
 | Rich2Gas/ASide-left/cols/HPMT/ckResAllCol3    | "Rich2Gas ASide-left Rec-Exp CKTheta - All photons - Column 3 - H-Type"     |   1802  | 0.00018109 | 0.0017647  |   -0.10976 |   -0.73701 |
 | Rich2Gas/ASide-left/cols/HPMT/ckResAllCol4    | "Rich2Gas ASide-left Rec-Exp CKTheta - All photons - Column 4 - H-Type"     |   1812  | 3.6023e-05 | 0.0018197  |  -0.054921 |   -0.78485 |
 | Rich2Gas/ASide-left/cols/HPMT/ckResAllCol5    | "Rich2Gas ASide-left Rec-Exp CKTheta - All photons - Column 5 - H-Type"     |   2020  | 0.00017251 | 0.0018165  |   -0.15258 |   -0.80486 |
 | Rich2Gas/ASide-left/cols/HPMT/ckResAllCol6    | "Rich2Gas ASide-left Rec-Exp CKTheta - All photons - Column 6 - H-Type"     |   1635  | 7.4958e-05 | 0.0018513  |   -0.06612 |   -0.92381 |
 | Rich2Gas/ASide-left/cols/HPMT/ckResAllCol7    | "Rich2Gas ASide-left Rec-Exp CKTheta - All photons - Column 7 - H-Type"     |   1507  |-0.00013741 | 0.001819   |    0.11914 |   -0.81989 |
 | Rich2Gas/ASide-left/cols/HPMT/ckResAllCol8    | "Rich2Gas ASide-left Rec-Exp CKTheta - All photons - Column 8 - H-Type"     |   1374  | 8.9389e-05 | 0.001738   |   0.011724 |   -0.75997 |
 | Rich2Gas/ASide-left/cols/HPMT/ckResAllCol9    | "Rich2Gas ASide-left Rec-Exp CKTheta - All photons - Column 9 - H-Type"     |   1132  |-1.5683e-06 | 0.0017359  |      0.108 |   -0.69194 |
 | Rich2Gas/ASide-left/cols/RPMT/ckResAllCol0    | "Rich2Gas ASide-left Rec-Exp CKTheta - All photons - Column 0 - R-Type"     |    0    |          0 | 0          |          0 |          0 |
 | Rich2Gas/ASide-left/cols/RPMT/ckResAllCol1    | "Rich2Gas ASide-left Rec-Exp CKTheta - All photons - Column 1 - R-Type"     |   2143  | 8.9855e-05 | 0.0017575  |  -0.046689 |    -0.7376 |
 | Rich2Gas/ASide-left/cols/RPMT/ckResAllCol10   | "Rich2Gas ASide-left Rec-Exp CKTheta - All photons - Column 10 - R-Type"    |   7066  | 1.5105e-05 | 0.0018719  |  0.0061165 |   -0.92915 |
 | Rich2Gas/ASide-left/cols/RPMT/ckResAllCol11   | "Rich2Gas ASide-left Rec-Exp CKTheta - All photons - Column 11 - R-Type"    |   5834  |-1.0453e-05 | 0.001882   | -0.0057125 |   -0.97713 |
 | Rich2Gas/ASide-left/cols/RPMT/ckResAllCol12   | "Rich2Gas ASide-left Rec-Exp CKTheta - All photons - Column 12 - R-Type"    |   4024  |-1.6311e-05 | 0.0018491  |   0.010418 |   -0.87036 |
 | Rich2Gas/ASide-left/cols/RPMT/ckResAllCol13   | "Rich2Gas ASide-left Rec-Exp CKTheta - All photons - Column 13 - R-Type"    |    0    |          0 | 0          |          0 |          0 |
 | Rich2Gas/ASide-left/cols/RPMT/ckResAllCol2    | "Rich2Gas ASide-left Rec-Exp CKTheta - All photons - Column 2 - R-Type"     |   3851  |  0.0001707 | 0.0018206  |  -0.076917 |   -0.82681 |
 | Rich2Gas/ASide-left/cols/RPMT/ckResAllCol3    | "Rich2Gas ASide-left Rec-Exp CKTheta - All photons - Column 3 - R-Type"     |   6274  | 4.5265e-06 | 0.0018758  |  0.0016483 |   -0.89389 |
 | Rich2Gas/ASide-left/cols/RPMT/ckResAllCol4    | "Rich2Gas ASide-left Rec-Exp CKTheta - All photons - Column 4 - R-Type"     |   7320  | 3.3402e-06 | 0.0018837  |  -0.015816 |   -0.92551 |
 | Rich2Gas/ASide-left/cols/RPMT/ckResAllCol5    | "Rich2Gas ASide-left Rec-Exp CKTheta - All photons - Column 5 - R-Type"     |   7811  | 0.00013592 | 0.0019124  |  -0.046188 |   -0.96227 |
 | Rich2Gas/ASide-left/cols/RPMT/ckResAllCol6    | "Rich2Gas ASide-left Rec-Exp CKTheta - All photons - Column 6 - R-Type"     |   9880  |  0.0001252 | 0.0019279  |  -0.082633 |    -1.0194 |
 | Rich2Gas/ASide-left/cols/RPMT/ckResAllCol7    | "Rich2Gas ASide-left Rec-Exp CKTheta - All photons - Column 7 - R-Type"     |   8113  | 0.00020891 | 0.0019251  |  -0.082645 |     -1.031 |
 | Rich2Gas/ASide-left/cols/RPMT/ckResAllCol8    | "Rich2Gas ASide-left Rec-Exp CKTheta - All photons - Column 8 - R-Type"     |   8337  | 0.00013622 | 0.0018739  |  -0.075394 |   -0.94322 |
 | Rich2Gas/ASide-left/cols/RPMT/ckResAllCol9    | "Rich2Gas ASide-left Rec-Exp CKTheta - All photons - Column 9 - R-Type"     |   7817  |-3.6575e-05 | 0.0018561  |    0.01368 |   -0.88073 |
 | Rich2Gas/ASide-left/cols/ckResAllCol0         | "Rich2Gas ASide-left Rec-Exp CKTheta - All photons - Column 0"              |    0    |          0 | 0          |          0 |          0 |
 | Rich2Gas/ASide-left/cols/ckResAllCol1         | "Rich2Gas ASide-left Rec-Exp CKTheta - All photons - Column 1"              |   2874  | 5.6806e-05 | 0.0017468  |  -0.074081 |   -0.70433 |
 | Rich2Gas/ASide-left/cols/ckResAllCol10        | "Rich2Gas ASide-left Rec-Exp CKTheta - All photons - Column 10"             |   7938  | 2.7754e-05 | 0.0018602  |   0.005143 |   -0.91651 |
 | Rich2Gas/ASide-left/cols/ckResAllCol11        | "Rich2Gas ASide-left Rec-Exp CKTheta - All photons - Column 11"             |   6519  | 2.8399e-05 | 0.0018592  |  -0.013189 |   -0.93294 |
 | Rich2Gas/ASide-left/cols/ckResAllCol12        | "Rich2Gas ASide-left Rec-Exp CKTheta - All photons - Column 12"             |   4373  | -1.538e-07 | 0.0018288  | 0.00085156 |    -0.8462 |
 | Rich2Gas/ASide-left/cols/ckResAllCol13        | "Rich2Gas ASide-left Rec-Exp CKTheta - All photons - Column 13"             |    0    |          0 | 0          |          0 |          0 |
 | Rich2Gas/ASide-left/cols/ckResAllCol2         | "Rich2Gas ASide-left Rec-Exp CKTheta - All photons - Column 2"              |   5165  | 0.00012446 | 0.001795   |   -0.06191 |    -0.7756 |
 | Rich2Gas/ASide-left/cols/ckResAllCol3         | "Rich2Gas ASide-left Rec-Exp CKTheta - All photons - Column 3"              |   8076  | 4.9832e-05 | 0.0018495  |  -0.029553 |   -0.85948 |
 | Rich2Gas/ASide-left/cols/ckResAllCol4         | "Rich2Gas ASide-left Rec-Exp CKTheta - All photons - Column 4"              |   9132  | 1.0816e-05 | 0.0018693  |  -0.024687 |   -0.89527 |
 | Rich2Gas/ASide-left/cols/ckResAllCol5         | "Rich2Gas ASide-left Rec-Exp CKTheta - All photons - Column 5"              |   9831  | 0.00014383 | 0.0018921  |  -0.067548 |   -0.93095 |
 | Rich2Gas/ASide-left/cols/ckResAllCol6         | "Rich2Gas ASide-left Rec-Exp CKTheta - All photons - Column 6"              |  11515  | 0.00011757 | 0.0019166  |  -0.079593 |    -1.0054 |
 | Rich2Gas/ASide-left/cols/ckResAllCol7         | "Rich2Gas ASide-left Rec-Exp CKTheta - All photons - Column 7"              |   9620  | 0.00015511 | 0.0019131  |  -0.048086 |    -1.0119 |
 | Rich2Gas/ASide-left/cols/ckResAllCol8         | "Rich2Gas ASide-left Rec-Exp CKTheta - All photons - Column 8"              |   9711  | 0.00012884 | 0.0018532  |  -0.062694 |   -0.91636 |
 | Rich2Gas/ASide-left/cols/ckResAllCol9         | "Rich2Gas ASide-left Rec-Exp CKTheta - All photons - Column 9"              |   8949  |-3.1449e-05 | 0.001839   |   0.024378 |   -0.85369 |
 | Rich2Gas/CSide-right/ckResAllPerPanel         | "Rich2Gas CSide-right Rec-Exp CKTheta - All photons"                        |  138236 | 6.6133e-05 | 0.0018637  |  -0.032582 |   -0.91204 |
 | Rich2Gas/CSide-right/ckResAllPerPanelBetaCut  | "Rich2Gas CSide-right Rec-Exp CKTheta - All photons - 0.999900<beta"        |  138236 | 6.6133e-05 | 0.0018637  |  -0.032582 |   -0.91204 |
 | Rich2Gas/CSide-right/ckResAllPerPanelHTypePD  | "Rich2Gas CSide-right Rec-Exp CKTheta - All photons - H-Type PDs"           |  27885  | 0.00010986 | 0.0017979  |  -0.085455 |   -0.79853 |
 | Rich2Gas/CSide-right/ckResAllPerPanelRTypePD  | "Rich2Gas CSide-right Rec-Exp CKTheta - All photons - R-Type PDs"           |  110351 | 5.3774e-05 | 0.0018817  |  -0.017827 |   -0.94108 |
 | Rich2Gas/CSide-right/cols/HPMT/ckResAllCol0   | "Rich2Gas CSide-right Rec-Exp CKTheta - All photons - Column 0 - H-Type"    |    0    |          0 | 0          |          0 |          0 |
 | Rich2Gas/CSide-right/cols/HPMT/ckResAllCol1   | "Rich2Gas CSide-right Rec-Exp CKTheta - All photons - Column 1 - H-Type"    |   706   | 0.00024256 | 0.0018643  |    -0.2185 |    -0.8305 |
 | Rich2Gas/CSide-right/cols/HPMT/ckResAllCol10  | "Rich2Gas CSide-right Rec-Exp CKTheta - All photons - Column 10 - H-Type"   |   2277  | 5.1648e-05 | 0.0017656  |   -0.13455 |   -0.76439 |
 | Rich2Gas/CSide-right/cols/HPMT/ckResAllCol11  | "Rich2Gas CSide-right Rec-Exp CKTheta - All photons - Column 11 - H-Type"   |   1878  | 0.00017525 | 0.0016997  |   -0.20956 |   -0.52748 |
 | Rich2Gas/CSide-right/cols/HPMT/ckResAllCol12  | "Rich2Gas CSide-right Rec-Exp CKTheta - All photons - Column 12 - H-Type"   |   1265  | 9.8088e-05 | 0.0017064  |   -0.18841 |   -0.57178 |
 | Rich2Gas/CSide-right/cols/HPMT/ckResAllCol13  | "Rich2Gas CSide-right Rec-Exp CKTheta - All photons - Column 13 - H-Type"   |    0    |          0 | 0          |          0 |          0 |
 | Rich2Gas/CSide-right/cols/HPMT/ckResAllCol2   | "Rich2Gas CSide-right Rec-Exp CKTheta - All photons - Column 2 - H-Type"    |   1460  |  0.0001214 | 0.001807   |   -0.09913 |   -0.87392 |
 | Rich2Gas/CSide-right/cols/HPMT/ckResAllCol3   | "Rich2Gas CSide-right Rec-Exp CKTheta - All photons - Column 3 - H-Type"    |   2786  | 0.00011858 | 0.0017759  |  -0.073953 |   -0.78662 |
 | Rich2Gas/CSide-right/cols/HPMT/ckResAllCol4   | "Rich2Gas CSide-right Rec-Exp CKTheta - All photons - Column 4 - H-Type"    |   3104  | 4.5907e-05 | 0.0018014  | -0.0079456 |   -0.77781 |
 | Rich2Gas/CSide-right/cols/HPMT/ckResAllCol5   | "Rich2Gas CSide-right Rec-Exp CKTheta - All photons - Column 5 - H-Type"    |   3763  | 5.4865e-05 | 0.0018328  |  -0.029343 |   -0.85355 |
 | Rich2Gas/CSide-right/cols/HPMT/ckResAllCol6   | "Rich2Gas CSide-right Rec-Exp CKTheta - All photons - Column 6 - H-Type"    |   3331  | 0.00011001 | 0.0018228  |  -0.066845 |   -0.86984 |
 | Rich2Gas/CSide-right/cols/HPMT/ckResAllCol7   | "Rich2Gas CSide-right Rec-Exp CKTheta - All photons - Column 7 - H-Type"    |   2800  |  8.968e-05 | 0.001792   |  -0.061813 |   -0.81675 |
 | Rich2Gas/CSide-right/cols/HPMT/ckResAllCol8   | "Rich2Gas CSide-right Rec-Exp CKTheta - All photons - Column 8 - H-Type"    |   2392  | 0.00012398 | 0.0018139  |  -0.033026 |   -0.82545 |
 | Rich2Gas/CSide-right/cols/HPMT/ckResAllCol9   | "Rich2Gas CSide-right Rec-Exp CKTheta - All photons - Column 9 - H-Type"    |   2123  | 0.00023938 | 0.0018478  |   -0.16733 |   -0.84955 |
 | Rich2Gas/CSide-right/cols/RPMT/ckResAllCol0   | "Rich2Gas CSide-right Rec-Exp CKTheta - All photons - Column 0 - R-Type"    |    0    |          0 | 0          |          0 |          0 |
 | Rich2Gas/CSide-right/cols/RPMT/ckResAllCol1   | "Rich2Gas CSide-right Rec-Exp CKTheta - All photons - Column 1 - R-Type"    |   2755  | 0.00027111 | 0.0018672  |   -0.17787 |   -0.84039 |
 | Rich2Gas/CSide-right/cols/RPMT/ckResAllCol10  | "Rich2Gas CSide-right Rec-Exp CKTheta - All photons - Column 10 - R-Type"   |   9183  | -0.0001039 | 0.0018643  |    0.06075 |   -0.92713 |
 | Rich2Gas/CSide-right/cols/RPMT/ckResAllCol11  | "Rich2Gas CSide-right Rec-Exp CKTheta - All photons - Column 11 - R-Type"   |   5626  |-6.6077e-05 | 0.0017734  |   0.069949 |   -0.75041 |
 | Rich2Gas/CSide-right/cols/RPMT/ckResAllCol12  | "Rich2Gas CSide-right Rec-Exp CKTheta - All photons - Column 12 - R-Type"   |   4067  |-8.3561e-06 | 0.0017729  |  -0.038293 |   -0.71364 |
 | Rich2Gas/CSide-right/cols/RPMT/ckResAllCol13  | "Rich2Gas CSide-right Rec-Exp CKTheta - All photons - Column 13 - R-Type"   |    0    |          0 | 0          |          0 |          0 |
 | Rich2Gas/CSide-right/cols/RPMT/ckResAllCol2   | "Rich2Gas CSide-right Rec-Exp CKTheta - All photons - Column 2 - R-Type"    |   5051  | 0.00016742 | 0.0018765  |   -0.10453 |   -0.92593 |
 | Rich2Gas/CSide-right/cols/RPMT/ckResAllCol3   | "Rich2Gas CSide-right Rec-Exp CKTheta - All photons - Column 3 - R-Type"    |   8480  | 6.9326e-05 | 0.0018787  |  -0.037934 |   -0.94644 |
 | Rich2Gas/CSide-right/cols/RPMT/ckResAllCol4   | "Rich2Gas CSide-right Rec-Exp CKTheta - All photons - Column 4 - R-Type"    |  10266  |-4.7084e-05 | 0.0018829  |    0.01657 |   -0.94719 |
 | Rich2Gas/CSide-right/cols/RPMT/ckResAllCol5   | "Rich2Gas CSide-right Rec-Exp CKTheta - All photons - Column 5 - R-Type"    |  14481  |-3.8275e-05 | 0.0019099  |   0.040304 |   -0.99757 |
 | Rich2Gas/CSide-right/cols/RPMT/ckResAllCol6   | "Rich2Gas CSide-right Rec-Exp CKTheta - All photons - Column 6 - R-Type"    |  14785  |  7.476e-05 | 0.0019138  |  -0.012314 |   -0.99797 |
 | Rich2Gas/CSide-right/cols/RPMT/ckResAllCol7   | "Rich2Gas CSide-right Rec-Exp CKTheta - All photons - Column 7 - R-Type"    |  11886  | 0.00010414 | 0.0018999  |  -0.035781 |   -0.97738 |
 | Rich2Gas/CSide-right/cols/RPMT/ckResAllCol8   | "Rich2Gas CSide-right Rec-Exp CKTheta - All photons - Column 8 - R-Type"    |  13427  |  0.0001494 | 0.0018859  |  -0.068464 |   -0.94512 |
 | Rich2Gas/CSide-right/cols/RPMT/ckResAllCol9   | "Rich2Gas CSide-right Rec-Exp CKTheta - All photons - Column 9 - R-Type"    |  10344  | 0.00010495 | 0.0018669  |  -0.033662 |   -0.88905 |
 | Rich2Gas/CSide-right/cols/ckResAllCol0        | "Rich2Gas CSide-right Rec-Exp CKTheta - All photons - Column 0"             |    0    |          0 | 0          |          0 |          0 |
 | Rich2Gas/CSide-right/cols/ckResAllCol1        | "Rich2Gas CSide-right Rec-Exp CKTheta - All photons - Column 1"             |   3461  | 0.00026576 | 0.0018667  |   -0.18542 |   -0.83811 |
 | Rich2Gas/CSide-right/cols/ckResAllCol10       | "Rich2Gas CSide-right Rec-Exp CKTheta - All photons - Column 10"            |  11460  |-6.5578e-05 | 0.0018417  |   0.013388 |   -0.89833 |
 | Rich2Gas/CSide-right/cols/ckResAllCol11       | "Rich2Gas CSide-right Rec-Exp CKTheta - All photons - Column 11"            |   7504  | 2.3677e-06 | 0.0017561  | -0.0090056 |   -0.71613 |
 | Rich2Gas/CSide-right/cols/ckResAllCol12       | "Rich2Gas CSide-right Rec-Exp CKTheta - All photons - Column 12"            |   5332  | 1.9524e-05 | 0.0017563  |  -0.076927 |   -0.68344 |
 | Rich2Gas/CSide-right/cols/ckResAllCol13       | "Rich2Gas CSide-right Rec-Exp CKTheta - All photons - Column 13"            |    0    |          0 | 0          |          0 |          0 |
 | Rich2Gas/CSide-right/cols/ckResAllCol2        | "Rich2Gas CSide-right Rec-Exp CKTheta - All photons - Column 2"             |   6511  | 0.00015642 | 0.0018602  |   -0.10237 |    -0.9129 |
 | Rich2Gas/CSide-right/cols/ckResAllCol3        | "Rich2Gas CSide-right Rec-Exp CKTheta - All photons - Column 3"             |  11266  | 8.2846e-05 | 0.0018512  |  -0.048416 |   -0.90468 |
 | Rich2Gas/CSide-right/cols/ckResAllCol4        | "Rich2Gas CSide-right Rec-Exp CKTheta - All photons - Column 4"             |  13370  | -2.387e-05 | 0.0018633  |  0.0086408 |   -0.90752 |
 | Rich2Gas/CSide-right/cols/ckResAllCol5        | "Rich2Gas CSide-right Rec-Exp CKTheta - All photons - Column 5"             |  18244  |-1.7312e-05 | 0.0018932  |   0.024005 |   -0.96844 |
 | Rich2Gas/CSide-right/cols/ckResAllCol6        | "Rich2Gas CSide-right Rec-Exp CKTheta - All photons - Column 6"             |  18116  | 8.1705e-05 | 0.0018963  |  -0.022692 |   -0.97405 |
 | Rich2Gas/CSide-right/cols/ckResAllCol7        | "Rich2Gas CSide-right Rec-Exp CKTheta - All photons - Column 7"             |  14686  | 0.00010117 | 0.0018782  |  -0.040038 |   -0.94565 |
 | Rich2Gas/CSide-right/cols/ckResAllCol8        | "Rich2Gas CSide-right Rec-Exp CKTheta - All photons - Column 8"             |  15819  | 0.00014535 | 0.0018746  |  -0.062959 |   -0.92708 |
 | Rich2Gas/CSide-right/cols/ckResAllCol9        | "Rich2Gas CSide-right Rec-Exp CKTheta - All photons - Column 9"             |  12467  | 0.00013132 | 0.0018639  |  -0.059822 |   -0.88591 |
 | Rich2Gas/ckResAll                             | "Rich2Gas Rec-Exp CKTheta - All photons"                                    |  231939 | 7.0081e-05 | 0.0018646  |  -0.034131 |   -0.91269 |
 | Rich2Gas/ckResAllBetaCut                      | "Rich2Gas Rec-Exp CKTheta - All photons - 0.999900<beta"                    |  231939 | 7.0081e-05 | 0.0018646  |  -0.034131 |   -0.91269 |
 | Rich2Gas/ckResAllHTypePD                      | "Rich2Gas Rec-Exp CKTheta - All photons - H-Type PDs"                       |  43118  | 9.6995e-05 | 0.0017907  |  -0.068998 |   -0.78886 |
 | Rich2Gas/ckResAllRTypePD                      | "Rich2Gas Rec-Exp CKTheta - All photons - R-Type PDs"                       |  188821 | 6.3182e-05 | 0.0018831  |  -0.025374 |   -0.94215 |
 | Rich2Gas/phiRec                               | "Rich2Gas Reconstructed CKPhi - All photons"                                |  231939 |      3.018 | 1.7933     |    0.12889 |    -1.1625 |
 | Rich2Gas/thetaRec                             | "Rich2Gas Reconstructed CKTheta - All photons"                              |  231939 |   0.025121 | 0.005414   |   -0.59793 |   -0.52912 |
RiCKResLongTight                    SUCCESS 1D histograms in directory "RICH/RiCKResLongTight" : 128
 | ID                                            |   Title                                                                     |    #    |     Mean   |    RMS     |  Skewness  |  Kurtosis  |
 | Rich1Gas/bottom/ckResAllPerPanel              | "Rich1Gas bottom Rec-Exp CKTheta - All photons"                             |  517321 | 5.5056e-05 | 0.0027765  |   -0.04345 |   -0.72158 |
 | Rich1Gas/bottom/ckResAllPerPanelBetaCut       | "Rich1Gas bottom Rec-Exp CKTheta - All photons - 0.999900<beta"             |  517321 | 5.5056e-05 | 0.0027765  |   -0.04345 |   -0.72158 |
 | Rich1Gas/bottom/cols/ckResAllCol0             | "Rich1Gas bottom Rec-Exp CKTheta - All photons - Column 0"                  |    31   | 0.00081394 | 0.001885   |   -0.63723 |    0.96478 |
 | Rich1Gas/bottom/cols/ckResAllCol1             | "Rich1Gas bottom Rec-Exp CKTheta - All photons - Column 1"                  |   267   | 0.00062597 | 0.0015759  |   -0.30902 |     2.3298 |
 | Rich1Gas/bottom/cols/ckResAllCol10            | "Rich1Gas bottom Rec-Exp CKTheta - All photons - Column 10"                 |  12720  | 4.3919e-06 | 0.0026062  |    0.12229 |   -0.51059 |
 | Rich1Gas/bottom/cols/ckResAllCol2             | "Rich1Gas bottom Rec-Exp CKTheta - All photons - Column 2"                  |   1133  | 0.00041628 | 0.0022272  |   -0.27571 |    0.33488 |
 | Rich1Gas/bottom/cols/ckResAllCol3             | "Rich1Gas bottom Rec-Exp CKTheta - All photons - Column 3"                  |   2434  | 0.00042538 | 0.0020962  |   -0.10811 |    0.54194 |
 | Rich1Gas/bottom/cols/ckResAllCol4             | "Rich1Gas bottom Rec-Exp CKTheta - All photons - Column 4"                  |   5828  | 0.00029691 | 0.0023091  |    -0.2813 |   0.061099 |
 | Rich1Gas/bottom/cols/ckResAllCol5             | "Rich1Gas bottom Rec-Exp CKTheta - All photons - Column 5"                  |  14180  | 0.00024678 | 0.002517   |   -0.20415 |   -0.30827 |
 | Rich1Gas/bottom/cols/ckResAllCol6             | "Rich1Gas bottom Rec-Exp CKTheta - All photons - Column 6"                  |  64893  | 0.00028225 | 0.0027309  |   -0.10613 |   -0.64499 |
 | Rich1Gas/bottom/cols/ckResAllCol7             | "Rich1Gas bottom Rec-Exp CKTheta - All photons - Column 7"                  |  169446 | 6.6054e-05 | 0.0028694  |  -0.041849 |   -0.84028 |
 | Rich1Gas/bottom/cols/ckResAllCol8             | "Rich1Gas bottom Rec-Exp CKTheta - All photons - Column 8"                  |  157278 |-7.4229e-05 | 0.0028166  |  -0.019215 |   -0.78521 |
 | Rich1Gas/bottom/cols/ckResAllCol9             | "Rich1Gas bottom Rec-Exp CKTheta - All photons - Column 9"                  |  89111  |-2.9725e-05 | 0.0027185  |  0.0061962 |     -0.637 |
 | Rich1Gas/ckResAll                             | "Rich1Gas Rec-Exp CKTheta - All photons"                                    |  943377 | 5.3706e-05 | 0.0027845  |   -0.04105 |   -0.73097 |
 | Rich1Gas/ckResAllBetaCut                      | "Rich1Gas Rec-Exp CKTheta - All photons - 0.999900<beta"                    |  943377 | 5.3706e-05 | 0.0027845  |   -0.04105 |   -0.73097 |
 | Rich1Gas/phiRec                               | "Rich1Gas Reconstructed CKPhi - All photons"                                |  943377 |     3.1886 | 1.803      |  -0.032055 |    -1.1696 |
 | Rich1Gas/thetaRec                             | "Rich1Gas Reconstructed CKTheta - All photons"                              |  943377 |   0.041788 | 0.010774   |   -0.75892 |   -0.27333 |
 | Rich1Gas/top/ckResAllPerPanel                 | "Rich1Gas top Rec-Exp CKTheta - All photons"                                |  426056 | 5.2065e-05 | 0.0027941  |  -0.038162 |   -0.74228 |
 | Rich1Gas/top/ckResAllPerPanelBetaCut          | "Rich1Gas top Rec-Exp CKTheta - All photons - 0.999900<beta"                |  426056 | 5.2065e-05 | 0.0027941  |  -0.038162 |   -0.74228 |
 | Rich1Gas/top/cols/ckResAllCol0                | "Rich1Gas top Rec-Exp CKTheta - All photons - Column 0"                     |    0    |          0 | 0          |          0 |          0 |
 | Rich1Gas/top/cols/ckResAllCol1                | "Rich1Gas top Rec-Exp CKTheta - All photons - Column 1"                     |    40   | 5.4889e-05 | 0.0020057  |    0.21658 |     0.6776 |
 | Rich1Gas/top/cols/ckResAllCol10               | "Rich1Gas top Rec-Exp CKTheta - All photons - Column 10"                    |  17690  | 0.00029467 | 0.0026248  |  -0.073696 |   -0.50788 |
 | Rich1Gas/top/cols/ckResAllCol2                | "Rich1Gas top Rec-Exp CKTheta - All photons - Column 2"                     |    73   |-0.00016042 | 0.0014885  |    0.71775 |    0.65708 |
 | Rich1Gas/top/cols/ckResAllCol3                | "Rich1Gas top Rec-Exp CKTheta - All photons - Column 3"                     |   404   |   0.000303 | 0.0023052  |   -0.45267 |    0.18457 |
 | Rich1Gas/top/cols/ckResAllCol4                | "Rich1Gas top Rec-Exp CKTheta - All photons - Column 4"                     |   2102  | 0.00033355 | 0.0024702  |   -0.18272 |   -0.17574 |
 | Rich1Gas/top/cols/ckResAllCol5                | "Rich1Gas top Rec-Exp CKTheta - All photons - Column 5"                     |   8901  | 0.00030135 | 0.0025283  |   -0.12453 |   -0.38611 |
 | Rich1Gas/top/cols/ckResAllCol6                | "Rich1Gas top Rec-Exp CKTheta - All photons - Column 6"                     |  46216  | 0.00024871 | 0.0027374  |  -0.090641 |   -0.65418 |
 | Rich1Gas/top/cols/ckResAllCol7                | "Rich1Gas top Rec-Exp CKTheta - All photons - Column 7"                     |  133504 | 6.4075e-05 | 0.002871   |  -0.031482 |   -0.84567 |
 | Rich1Gas/top/cols/ckResAllCol8                | "Rich1Gas top Rec-Exp CKTheta - All photons - Column 8"                     |  143526 |-5.1406e-05 | 0.0028355  | -0.0076933 |   -0.80296 |
 | Rich1Gas/top/cols/ckResAllCol9                | "Rich1Gas top Rec-Exp CKTheta - All photons - Column 9"                     |  73600  |-6.6339e-05 | 0.0027235  |  -0.018943 |   -0.63689 |
 | Rich2Gas/ASide-left/ckResAllPerPanel          | "Rich2Gas ASide-left Rec-Exp CKTheta - All photons"                         |  72297  | 7.0624e-05 | 0.001863   |  -0.032953 |   -0.90665 |
 | Rich2Gas/ASide-left/ckResAllPerPanelBetaCut   | "Rich2Gas ASide-left Rec-Exp CKTheta - All photons - 0.999900<beta"         |  72297  | 7.0624e-05 | 0.001863   |  -0.032953 |   -0.90665 |
 | Rich2Gas/ASide-left/ckResAllPerPanelHTypePD   | "Rich2Gas ASide-left Rec-Exp CKTheta - All photons - H-Type PDs"            |  12169  | 6.1852e-05 | 0.0017699  |  -0.027187 |   -0.75785 |
 | Rich2Gas/ASide-left/ckResAllPerPanelRTypePD   | "Rich2Gas ASide-left Rec-Exp CKTheta - All photons - R-Type PDs"            |  60128  | 7.2625e-05 | 0.0018836  |  -0.034386 |    -0.9384 |
 | Rich2Gas/ASide-left/cols/HPMT/ckResAllCol0    | "Rich2Gas ASide-left Rec-Exp CKTheta - All photons - Column 0 - H-Type"     |    0    |          0 | 0          |          0 |          0 |
 | Rich2Gas/ASide-left/cols/HPMT/ckResAllCol1    | "Rich2Gas ASide-left Rec-Exp CKTheta - All photons - Column 1 - H-Type"     |   684   | 1.3455e-05 | 0.001708   |   -0.19483 |   -0.61153 |
 | Rich2Gas/ASide-left/cols/HPMT/ckResAllCol10   | "Rich2Gas ASide-left Rec-Exp CKTheta - All photons - Column 10 - H-Type"    |   811   | 6.5662e-05 | 0.0017884  |   0.040482 |   -0.83847 |
 | Rich2Gas/ASide-left/cols/HPMT/ckResAllCol11   | "Rich2Gas ASide-left Rec-Exp CKTheta - All photons - Column 11 - H-Type"    |   616   | 0.00023254 | 0.0016424  |   0.068504 |   -0.61745 |
 | Rich2Gas/ASide-left/cols/HPMT/ckResAllCol12   | "Rich2Gas ASide-left Rec-Exp CKTheta - All photons - Column 12 - H-Type"    |   316   | 0.00015472 | 0.0016349  |  -0.025234 |   -0.71457 |
 | Rich2Gas/ASide-left/cols/HPMT/ckResAllCol13   | "Rich2Gas ASide-left Rec-Exp CKTheta - All photons - Column 13 - H-Type"    |    0    |          0 | 0          |          0 |          0 |
 | Rich2Gas/ASide-left/cols/HPMT/ckResAllCol2    | "Rich2Gas ASide-left Rec-Exp CKTheta - All photons - Column 2 - H-Type"     |   1149  |-5.5789e-05 | 0.0016882  |  -0.025529 |    -0.5761 |
 | Rich2Gas/ASide-left/cols/HPMT/ckResAllCol3    | "Rich2Gas ASide-left Rec-Exp CKTheta - All photons - Column 3 - H-Type"     |   1487  | 0.00013297 | 0.0017578  |  -0.073012 |   -0.70434 |
 | Rich2Gas/ASide-left/cols/HPMT/ckResAllCol4    | "Rich2Gas ASide-left Rec-Exp CKTheta - All photons - Column 4 - H-Type"     |   1312  | 8.3493e-05 | 0.0018197  |  -0.063507 |   -0.79605 |
 | Rich2Gas/ASide-left/cols/HPMT/ckResAllCol5    | "Rich2Gas ASide-left Rec-Exp CKTheta - All photons - Column 5 - H-Type"     |   1457  | 0.00020662 | 0.0018132  |   -0.15524 |   -0.79791 |
 | Rich2Gas/ASide-left/cols/HPMT/ckResAllCol6    | "Rich2Gas ASide-left Rec-Exp CKTheta - All photons - Column 6 - H-Type"     |   1121  |  7.306e-05 | 0.0018488  |  -0.080266 |   -0.94167 |
 | Rich2Gas/ASide-left/cols/HPMT/ckResAllCol7    | "Rich2Gas ASide-left Rec-Exp CKTheta - All photons - Column 7 - H-Type"     |   1107  |-0.00023075 | 0.0017997  |    0.15616 |   -0.77425 |
 | Rich2Gas/ASide-left/cols/HPMT/ckResAllCol8    | "Rich2Gas ASide-left Rec-Exp CKTheta - All photons - Column 8 - H-Type"     |   1114  | 5.2084e-05 | 0.0017456  |   0.048149 |   -0.74627 |
 | Rich2Gas/ASide-left/cols/HPMT/ckResAllCol9    | "Rich2Gas ASide-left Rec-Exp CKTheta - All photons - Column 9 - H-Type"     |   995   | 1.5561e-05 | 0.0017537  |   0.092101 |   -0.72372 |
 | Rich2Gas/ASide-left/cols/RPMT/ckResAllCol0    | "Rich2Gas ASide-left Rec-Exp CKTheta - All photons - Column 0 - R-Type"     |    0    |          0 | 0          |          0 |          0 |
 | Rich2Gas/ASide-left/cols/RPMT/ckResAllCol1    | "Rich2Gas ASide-left Rec-Exp CKTheta - All photons - Column 1 - R-Type"     |   1745  | 6.9504e-05 | 0.0017574  |  -0.024745 |   -0.73433 |
 | Rich2Gas/ASide-left/cols/RPMT/ckResAllCol10   | "Rich2Gas ASide-left Rec-Exp CKTheta - All photons - Column 10 - R-Type"    |   5858  | 1.1431e-05 | 0.00187    |   0.012425 |   -0.91433 |
 | Rich2Gas/ASide-left/cols/RPMT/ckResAllCol11   | "Rich2Gas ASide-left Rec-Exp CKTheta - All photons - Column 11 - R-Type"    |   4925  |-1.4009e-05 | 0.001886   | 0.00077328 |   -0.99809 |
 | Rich2Gas/ASide-left/cols/RPMT/ckResAllCol12   | "Rich2Gas ASide-left Rec-Exp CKTheta - All photons - Column 12 - R-Type"    |   3519  |-1.1791e-05 | 0.0018441  |   0.022265 |   -0.86281 |
 | Rich2Gas/ASide-left/cols/RPMT/ckResAllCol13   | "Rich2Gas ASide-left Rec-Exp CKTheta - All photons - Column 13 - R-Type"    |    0    |          0 | 0          |          0 |          0 |
 | Rich2Gas/ASide-left/cols/RPMT/ckResAllCol2    | "Rich2Gas ASide-left Rec-Exp CKTheta - All photons - Column 2 - R-Type"     |   3159  | 0.00016965 | 0.0018155  |  -0.061331 |    -0.8483 |
 | Rich2Gas/ASide-left/cols/RPMT/ckResAllCol3    | "Rich2Gas ASide-left Rec-Exp CKTheta - All photons - Column 3 - R-Type"     |   4720  |-5.8282e-06 | 0.0018881  | -0.0048299 |   -0.91018 |
 | Rich2Gas/ASide-left/cols/RPMT/ckResAllCol4    | "Rich2Gas ASide-left Rec-Exp CKTheta - All photons - Column 4 - R-Type"     |   5252  |-3.5384e-05 | 0.0018769  |  0.0098876 |   -0.91808 |
 | Rich2Gas/ASide-left/cols/RPMT/ckResAllCol5    | "Rich2Gas ASide-left Rec-Exp CKTheta - All photons - Column 5 - R-Type"     |   5827  | 0.00015587 | 0.0019202  |  -0.053779 |   -0.97885 |
 | Rich2Gas/ASide-left/cols/RPMT/ckResAllCol6    | "Rich2Gas ASide-left Rec-Exp CKTheta - All photons - Column 6 - R-Type"     |   6444  | 0.00017709 | 0.0019127  |    -0.1222 |   -0.97392 |
 | Rich2Gas/ASide-left/cols/RPMT/ckResAllCol7    | "Rich2Gas ASide-left Rec-Exp CKTheta - All photons - Column 7 - R-Type"     |   5717  | 0.00025524 | 0.001916   |   -0.10985 |    -1.0079 |
 | Rich2Gas/ASide-left/cols/RPMT/ckResAllCol8    | "Rich2Gas ASide-left Rec-Exp CKTheta - All photons - Column 8 - R-Type"     |   6416  | 0.00010442 | 0.001886   |   -0.07617 |   -0.95591 |
 | Rich2Gas/ASide-left/cols/RPMT/ckResAllCol9    | "Rich2Gas ASide-left Rec-Exp CKTheta - All photons - Column 9 - R-Type"     |   6546  |-7.7312e-05 | 0.0018584  |   0.037996 |   -0.87332 |
 | Rich2Gas/ASide-left/cols/ckResAllCol0         | "Rich2Gas ASide-left Rec-Exp CKTheta - All photons - Column 0"              |    0    |          0 | 0          |          0 |          0 |
 | Rich2Gas/ASide-left/cols/ckResAllCol1         | "Rich2Gas ASide-left Rec-Exp CKTheta - All photons - Column 1"              |   2429  | 5.2859e-05 | 0.001743   |  -0.071131 |   -0.69468 |
 | Rich2Gas/ASide-left/cols/ckResAllCol10        | "Rich2Gas ASide-left Rec-Exp CKTheta - All photons - Column 10"             |   6669  |  1.996e-05 | 0.0018575  |   0.015344 |   -0.90148 |
 | Rich2Gas/ASide-left/cols/ckResAllCol11        | "Rich2Gas ASide-left Rec-Exp CKTheta - All photons - Column 11"             |   5541  | 2.1021e-05 | 0.0018553  | -0.0045005 |   -0.94465 |
 | Rich2Gas/ASide-left/cols/ckResAllCol12        | "Rich2Gas ASide-left Rec-Exp CKTheta - All photons - Column 12"             |   3835  | 2.9596e-06 | 0.0018271  |   0.014419 |   -0.84697 |
 | Rich2Gas/ASide-left/cols/ckResAllCol13        | "Rich2Gas ASide-left Rec-Exp CKTheta - All photons - Column 13"             |    0    |          0 | 0          |          0 |          0 |
 | Rich2Gas/ASide-left/cols/ckResAllCol2         | "Rich2Gas ASide-left Rec-Exp CKTheta - All photons - Column 2"              |   4308  | 0.00010742 | 0.0017841  |  -0.042413 |   -0.77975 |
 | Rich2Gas/ASide-left/cols/ckResAllCol3         | "Rich2Gas ASide-left Rec-Exp CKTheta - All photons - Column 3"              |   6207  | 3.2573e-05 | 0.001854   |   -0.02711 |   -0.85797 |
 | Rich2Gas/ASide-left/cols/ckResAllCol4         | "Rich2Gas ASide-left Rec-Exp CKTheta - All photons - Column 4"              |   6564  |-8.4275e-06 | 0.0018648  | -0.0075784 |   -0.89356 |
 | Rich2Gas/ASide-left/cols/ckResAllCol5         | "Rich2Gas ASide-left Rec-Exp CKTheta - All photons - Column 5"              |   7284  | 0.00016664 | 0.0018981  |  -0.074066 |   -0.94396 |
 | Rich2Gas/ASide-left/cols/ckResAllCol6         | "Rich2Gas ASide-left Rec-Exp CKTheta - All photons - Column 6"              |   7565  | 0.00016034 | 0.001903   |   -0.11451 |    -0.9689 |
 | Rich2Gas/ASide-left/cols/ckResAllCol7         | "Rich2Gas ASide-left Rec-Exp CKTheta - All photons - Column 7"              |   6824  | 0.00018079 | 0.0019067  |  -0.064082 |   -0.99504 |
 | Rich2Gas/ASide-left/cols/ckResAllCol8         | "Rich2Gas ASide-left Rec-Exp CKTheta - All photons - Column 8"              |   7530  | 9.6083e-05 | 0.0018645  |  -0.058329 |     -0.926 |
 | Rich2Gas/ASide-left/cols/ckResAllCol9         | "Rich2Gas ASide-left Rec-Exp CKTheta - All photons - Column 9"              |   7541  |-6.3172e-05 | 0.0018431  |   0.042901 |   -0.84978 |
 | Rich2Gas/CSide-right/ckResAllPerPanel         | "Rich2Gas CSide-right Rec-Exp CKTheta - All photons"                        |  59874  | 8.6537e-05 | 0.0018565  |  -0.046588 |   -0.89378 |
 | Rich2Gas/CSide-right/ckResAllPerPanelBetaCut  | "Rich2Gas CSide-right Rec-Exp CKTheta - All photons - 0.999900<beta"        |  59874  | 8.6537e-05 | 0.0018565  |  -0.046588 |   -0.89378 |
 | Rich2Gas/CSide-right/ckResAllPerPanelHTypePD  | "Rich2Gas CSide-right Rec-Exp CKTheta - All photons - H-Type PDs"           |  14114  | 0.00013284 | 0.0017918  |  -0.095239 |   -0.79238 |
 | Rich2Gas/CSide-right/ckResAllPerPanelRTypePD  | "Rich2Gas CSide-right Rec-Exp CKTheta - All photons - R-Type PDs"           |  45760  | 7.0996e-05 | 0.0018775  |  -0.030178 |   -0.92488 |
 | Rich2Gas/CSide-right/cols/HPMT/ckResAllCol0   | "Rich2Gas CSide-right Rec-Exp CKTheta - All photons - Column 0 - H-Type"    |    0    |          0 | 0          |          0 |          0 |
 | Rich2Gas/CSide-right/cols/HPMT/ckResAllCol1   | "Rich2Gas CSide-right Rec-Exp CKTheta - All photons - Column 1 - H-Type"    |   505   | 0.00020266 | 0.0018795  |   -0.19077 |    -0.8415 |
 | Rich2Gas/CSide-right/cols/HPMT/ckResAllCol10  | "Rich2Gas CSide-right Rec-Exp CKTheta - All photons - Column 10 - H-Type"   |   1272  |  1.227e-06 | 0.0017672  |   -0.13293 |   -0.81336 |
 | Rich2Gas/CSide-right/cols/HPMT/ckResAllCol11  | "Rich2Gas CSide-right Rec-Exp CKTheta - All photons - Column 11 - H-Type"   |   990   | 0.00021414 | 0.0016519  |   -0.19856 |   -0.48912 |
 | Rich2Gas/CSide-right/cols/HPMT/ckResAllCol12  | "Rich2Gas CSide-right Rec-Exp CKTheta - All photons - Column 12 - H-Type"   |   622   | 0.00014998 | 0.0017153  |   -0.23497 |   -0.53658 |
 | Rich2Gas/CSide-right/cols/HPMT/ckResAllCol13  | "Rich2Gas CSide-right Rec-Exp CKTheta - All photons - Column 13 - H-Type"   |    0    |          0 | 0          |          0 |          0 |
 | Rich2Gas/CSide-right/cols/HPMT/ckResAllCol2   | "Rich2Gas CSide-right Rec-Exp CKTheta - All photons - Column 2 - H-Type"    |   939   | 0.00012751 | 0.0018112  |  -0.073248 |   -0.86695 |
 | Rich2Gas/CSide-right/cols/HPMT/ckResAllCol3   | "Rich2Gas CSide-right Rec-Exp CKTheta - All photons - Column 3 - H-Type"    |   1492  | 7.4748e-05 | 0.0017778  |   -0.06209 |     -0.849 |
 | Rich2Gas/CSide-right/cols/HPMT/ckResAllCol4   | "Rich2Gas CSide-right Rec-Exp CKTheta - All photons - Column 4 - H-Type"    |   1440  | 2.4923e-05 | 0.0017947  |   0.027592 |   -0.73267 |
 | Rich2Gas/CSide-right/cols/HPMT/ckResAllCol5   | "Rich2Gas CSide-right Rec-Exp CKTheta - All photons - Column 5 - H-Type"    |   1649  | 4.9974e-05 | 0.0017886  | -0.0094776 |    -0.7869 |
 | Rich2Gas/CSide-right/cols/HPMT/ckResAllCol6   | "Rich2Gas CSide-right Rec-Exp CKTheta - All photons - Column 6 - H-Type"    |   1582  | 0.00021115 | 0.0017616  |    -0.1155 |   -0.74858 |
 | Rich2Gas/CSide-right/cols/HPMT/ckResAllCol7   | "Rich2Gas CSide-right Rec-Exp CKTheta - All photons - Column 7 - H-Type"    |   1273  | 0.00014819 | 0.0018331  |  -0.095345 |   -0.91948 |
 | Rich2Gas/CSide-right/cols/HPMT/ckResAllCol8   | "Rich2Gas CSide-right Rec-Exp CKTheta - All photons - Column 8 - H-Type"    |   1193  | 0.00020481 | 0.0018199  |  -0.066671 |   -0.84906 |
 | Rich2Gas/CSide-right/cols/HPMT/ckResAllCol9   | "Rich2Gas CSide-right Rec-Exp CKTheta - All photons - Column 9 - H-Type"    |   1157  | 0.00027718 | 0.0018624  |   -0.19669 |   -0.81091 |
 | Rich2Gas/CSide-right/cols/RPMT/ckResAllCol0   | "Rich2Gas CSide-right Rec-Exp CKTheta - All photons - Column 0 - R-Type"    |    0    |          0 | 0          |          0 |          0 |
 | Rich2Gas/CSide-right/cols/RPMT/ckResAllCol1   | "Rich2Gas CSide-right Rec-Exp CKTheta - All photons - Column 1 - R-Type"    |   1335  | 0.00020921 | 0.001879   |  -0.074628 |   -0.92714 |
 | Rich2Gas/CSide-right/cols/RPMT/ckResAllCol10  | "Rich2Gas CSide-right Rec-Exp CKTheta - All photons - Column 10 - R-Type"   |   3907  |  -6.31e-05 | 0.0018575  |   0.042876 |   -0.90953 |
 | Rich2Gas/CSide-right/cols/RPMT/ckResAllCol11  | "Rich2Gas CSide-right Rec-Exp CKTheta - All photons - Column 11 - R-Type"   |   2546  |-6.6362e-05 | 0.0017806  |    0.05055 |   -0.72746 |
 | Rich2Gas/CSide-right/cols/RPMT/ckResAllCol12  | "Rich2Gas CSide-right Rec-Exp CKTheta - All photons - Column 12 - R-Type"   |   1704  | 6.2913e-05 | 0.0017234  |  -0.074035 |   -0.57569 |
 | Rich2Gas/CSide-right/cols/RPMT/ckResAllCol13  | "Rich2Gas CSide-right Rec-Exp CKTheta - All photons - Column 13 - R-Type"   |    0    |          0 | 0          |          0 |          0 |
 | Rich2Gas/CSide-right/cols/RPMT/ckResAllCol2   | "Rich2Gas CSide-right Rec-Exp CKTheta - All photons - Column 2 - R-Type"    |   2080  | 0.00024693 | 0.0018703  |   -0.14752 |   -0.89514 |
 | Rich2Gas/CSide-right/cols/RPMT/ckResAllCol3   | "Rich2Gas CSide-right Rec-Exp CKTheta - All photons - Column 3 - R-Type"    |   3485  | 7.1304e-05 | 0.0018794  |  -0.031399 |   -0.92391 |
 | Rich2Gas/CSide-right/cols/RPMT/ckResAllCol4   | "Rich2Gas CSide-right Rec-Exp CKTheta - All photons - Column 4 - R-Type"    |   4028  |-3.8159e-05 | 0.0018691  | -0.0039257 |   -0.90143 |
 | Rich2Gas/CSide-right/cols/RPMT/ckResAllCol5   | "Rich2Gas CSide-right Rec-Exp CKTheta - All photons - Column 5 - R-Type"    |   5799  | 1.2832e-05 | 0.0019309  | -0.0029272 |     -1.031 |
 | Rich2Gas/CSide-right/cols/RPMT/ckResAllCol6   | "Rich2Gas CSide-right Rec-Exp CKTheta - All photons - Column 6 - R-Type"    |   5887  | 0.00011111 | 0.0019119  |  -0.044057 |   -0.98983 |
 | Rich2Gas/CSide-right/cols/RPMT/ckResAllCol7   | "Rich2Gas CSide-right Rec-Exp CKTheta - All photons - Column 7 - R-Type"    |   4783  | 0.00011576 | 0.0018886  |  -0.023653 |   -0.95651 |
 | Rich2Gas/CSide-right/cols/RPMT/ckResAllCol8   | "Rich2Gas CSide-right Rec-Exp CKTheta - All photons - Column 8 - R-Type"    |   5673  | 0.00012544 | 0.0018834  |  -0.068167 |   -0.93639 |
 | Rich2Gas/CSide-right/cols/RPMT/ckResAllCol9   | "Rich2Gas CSide-right Rec-Exp CKTheta - All photons - Column 9 - R-Type"    |   4533  |   0.000102 | 0.0018683  |  -0.043459 |     -0.891 |
 | Rich2Gas/CSide-right/cols/ckResAllCol0        | "Rich2Gas CSide-right Rec-Exp CKTheta - All photons - Column 0"             |    0    |          0 | 0          |          0 |          0 |
 | Rich2Gas/CSide-right/cols/ckResAllCol1        | "Rich2Gas CSide-right Rec-Exp CKTheta - All photons - Column 1"             |   1840  | 0.00020746 | 0.0018791  |    -0.1057 |    -0.9039 |
 | Rich2Gas/CSide-right/cols/ckResAllCol10       | "Rich2Gas CSide-right Rec-Exp CKTheta - All photons - Column 10"            |   5179  |-4.4537e-05 | 0.0018322  |  -0.004745 |   -0.88576 |
 | Rich2Gas/CSide-right/cols/ckResAllCol11       | "Rich2Gas CSide-right Rec-Exp CKTheta - All photons - Column 11"            |   3536  | 1.4754e-05 | 0.001749   |  -0.024403 |   -0.68626 |
 | Rich2Gas/CSide-right/cols/ckResAllCol12       | "Rich2Gas CSide-right Rec-Exp CKTheta - All photons - Column 12"            |   2326  | 8.5926e-05 | 0.0017217  |   -0.11635 |   -0.57113 |
 | Rich2Gas/CSide-right/cols/ckResAllCol13       | "Rich2Gas CSide-right Rec-Exp CKTheta - All photons - Column 13"            |    0    |          0 | 0          |          0 |          0 |
 | Rich2Gas/CSide-right/cols/ckResAllCol2        | "Rich2Gas CSide-right Rec-Exp CKTheta - All photons - Column 2"             |   3019  | 0.00020681 | 0.0018515  |   -0.12131 |   -0.88784 |
 | Rich2Gas/CSide-right/cols/ckResAllCol3        | "Rich2Gas CSide-right Rec-Exp CKTheta - All photons - Column 3"             |   4977  | 7.2435e-05 | 0.0018467  |  -0.040554 |   -0.89738 |
 | Rich2Gas/CSide-right/cols/ckResAllCol4        | "Rich2Gas CSide-right Rec-Exp CKTheta - All photons - Column 4"             |   5468  |-2.0673e-05 | 0.001849   |  0.0024602 |   -0.85606 |
 | Rich2Gas/CSide-right/cols/ckResAllCol5        | "Rich2Gas CSide-right Rec-Exp CKTheta - All photons - Column 5"             |   7448  | 2.1793e-05 | 0.0018976  | -0.0058381 |   -0.97665 |
 | Rich2Gas/CSide-right/cols/ckResAllCol6        | "Rich2Gas CSide-right Rec-Exp CKTheta - All photons - Column 6"             |   7469  | 0.00013301 | 0.0018805  |  -0.061183 |   -0.94185 |
 | Rich2Gas/CSide-right/cols/ckResAllCol7        | "Rich2Gas CSide-right Rec-Exp CKTheta - All photons - Column 7"             |   6056  | 0.00012324 | 0.001876   |  -0.039603 |   -0.94818 |
 | Rich2Gas/CSide-right/cols/ckResAllCol8        | "Rich2Gas CSide-right Rec-Exp CKTheta - All photons - Column 8"             |   6866  | 0.00013973 | 0.0018724  |  -0.069149 |   -0.92036 |
 | Rich2Gas/CSide-right/cols/ckResAllCol9        | "Rich2Gas CSide-right Rec-Exp CKTheta - All photons - Column 9"             |   5690  | 0.00014118 | 0.0018684  |  -0.077524 |   -0.88048 |
 | Rich2Gas/ckResAll                             | "Rich2Gas Rec-Exp CKTheta - All photons"                                    |  132171 | 7.7887e-05 | 0.00186    |  -0.039186 |   -0.90088 |
 | Rich2Gas/ckResAllBetaCut                      | "Rich2Gas Rec-Exp CKTheta - All photons - 0.999900<beta"                    |  132171 | 7.7887e-05 | 0.00186    |  -0.039186 |   -0.90088 |
 | Rich2Gas/ckResAllHTypePD                      | "Rich2Gas Rec-Exp CKTheta - All photons - H-Type PDs"                       |  26283  | 9.9606e-05 | 0.0017819  |  -0.063231 |   -0.77848 |
 | Rich2Gas/ckResAllRTypePD                      | "Rich2Gas Rec-Exp CKTheta - All photons - R-Type PDs"                       |  105888 | 7.1915e-05 | 0.0018809  |  -0.032558 |   -0.93254 |
 | Rich2Gas/phiRec                               | "Rich2Gas Reconstructed CKPhi - All photons"                                |  132171 |     3.1033 | 1.8045     |   0.046056 |    -1.1902 |
 | Rich2Gas/thetaRec                             | "Rich2Gas Reconstructed CKTheta - All photons"                              |  132171 |   0.025188 | 0.005375   |   -0.59719 |   -0.53941 |
RichRecPixelQC                      SUCCESS 1D histograms in directory "RICH/RichRecPixelQC" : 20
 | ID                                            |   Title                                                                     |    #    |     Mean   |    RMS     |  Skewness  |  Kurtosis  |
 | Rich1/bottom/pixXGlo                          | "Rich1 bottom Global X hits"                                                | 4127065 |    -13.192 | 238.25     |   0.018543 |    0.14212 |
 | Rich1/bottom/pixYGlo                          | "Rich1 bottom Global Y hits"                                                | 4127065 |    -1357.2 | 66.562     |   -0.90458 |    0.46232 |
 | Rich1/nActivePDs                              | "Rich1 # Active PDs (nHits>0)"                                              |   5000  |     533.39 | 324.68     |    0.06772 |    -0.7005 |
 | Rich1/nTotalPixs                              | "Rich1 Overall occupancy (nHits>0)"                                         |   5000  |     1685.8 | 1369.6     |     1.2167 |     3.1783 |
 | Rich1/nTotalPixsPerPD                         | "Rich1 Average overall PD occupancy (nHits>0)"                              | 2666957 |     3.1605 | 3.4072     |      2.696 |     9.8209 |
 | Rich1/pixXLoc                                 | "Rich1 Local X hits"                                                        | 8428988 |     -10.01 | 242.48     |   -0.00838 |  -0.021104 |
 | Rich1/pixYLoc                                 | "Rich1 Local Y hits"                                                        | 8428988 |     14.972 | 271.64     |   0.096529 |   -0.73415 |
 | Rich1/top/pixXGlo                             | "Rich1 top Global X hits"                                                   | 4301923 |    -6.9571 | 246.42     |  -0.029284 |   -0.12889 |
 | Rich1/top/pixYGlo                             | "Rich1 top Global Y hits"                                                   | 4301923 |     1369.3 | 77.63      |    0.86071 |    0.01558 |
 | Rich2/ASide-left/pixXGlo                      | "Rich2 ASide-left Global X hits"                                            | 4808838 |     3899.8 | 85.55      |  -0.084532 |   -0.95319 |
 | Rich2/ASide-left/pixYGlo                      | "Rich2 ASide-left Global Y hits"                                            | 4808838 |     8.4881 | 298.77     |   0.037374 |   -0.27765 |
 | Rich2/CSide-right/pixXGlo                     | "Rich2 CSide-right Global X hits"                                           | 4659539 |    -3896.6 | 85.893     |   0.095115 |   -0.97047 |
 | Rich2/CSide-right/pixYGlo                     | "Rich2 CSide-right Global Y hits"                                           | 4659539 |     11.176 | 306.89     |   0.010443 |   -0.41367 |
 | Rich2/nActivePDs                              | "Rich2 # Active PDs (nHits>0)"                                              |   5000  |     672.18 | 329.47     |   -0.73277 |   -0.65437 |
 | Rich2/nTotalPixs                              | "Rich2 Overall occupancy (nHits>0)"                                         |   5000  |     1893.7 | 1396.1     |    0.77883 |     0.5424 |
 | Rich2/nTotalPixsPerHTypePD                    | "Rich2 Average overall H-Type PD occupancy (nHits>0)"                       | 1308835 |      3.124 | 2.5648     |     2.3578 |     9.6975 |
 | Rich2/nTotalPixsPerPD                         | "Rich2 Average overall PD occupancy (nHits>0)"                              | 3360907 |     2.8172 | 2.344      |     2.4478 |     10.059 |
 | Rich2/nTotalPixsPerRTypePD                    | "Rich2 Average overall R-Type PD occupancy (nHits>0)"                       | 2052072 |     2.6215 | 2.1691     |     2.4645 |     9.6646 |
 | Rich2/pixXLoc                                 | "Rich2 Local X hits"                                                        | 9468377 |     6.6594 | 453.27     |  -0.025903 |    -1.4783 |
 | Rich2/pixYLoc                                 | "Rich2 Local Y hits"                                                        | 9468377 |     9.7536 | 302.8      |   0.029073 |   -0.36149 |
RichRecPixelQC                      SUCCESS 1D profile histograms in directory "RICH/RichRecPixelQC" : 4
 | ID                                            |   Title                                                                     |    #    |     Mean   |    RMS     |  Skewness  |  Kurtosis  |
 | Rich1/pdOccXLoc                               | "Rich1 PD Average Occupancy (X)"                                            | 12500000 |          0 | 375.2      |  -0.045686 |    -2.4813 |
 | Rich1/pdOccYLoc                               | "Rich1 PD Average Occupancy (Y)"                                            | 12500000 |          0 | 392.52     |    0.14275 |    -2.3983 |
 | Rich2/pdOccXLoc                               | "Rich2 PD Average Occupancy (X)"                                            | 12500000 |          0 | 461.79     |  0.0048452 |    -1.5462 |
 | Rich2/pdOccYLoc                               | "Rich2 PD Average Occupancy (Y)"                                            | 12500000 |          0 | 432.93     |   0.061262 |    -2.0864 |
