p00s00  0.02466666666666667  0.6773333333333335
p01s01  0.08499999999999999  0.6496666666666666
p02s02  0.015666666666666672  0.684
p03s03  -0.01566666666666667  0.5806666666666667
p04s00  0.11800000000000001  0.6983333333333334
p04s01  0.12066666666666666  0.6260000000000001
p04s04  0.02433333333333334  0.6696666666666666
p05s02  -0.0033333333333333335  0.6063333333333334
p05s05  0.006666666666666667  0.64
p06s03  0.04733333333333334  0.5846666666666667
p06s06  0.0023333333333333366  0.6226666666666668
p07s07  -0.01566666666666667  0.5693333333333334
p08s04  0.079  0.6606666666666666
p08s08  -0.04200000000000001  0.6513333333333334
p09s05  0.059333333333333335  0.6463333333333333
p09s09  -0.04066666666666667  0.6393333333333333
p10s06  0.05500000000000001  0.6220000000000001
p10s10  -0.037333333333333336  0.6110000000000001
p11s07  0.012666666666666666  0.557
p11s11  -0.007999999999999998  0.545
p12s08  0.003666666666666668  0.6493333333333333
p12s09  0.0033333333333333366  0.6446666666666667
p13s09  0.002666666666666667  0.6376666666666668
p13s10  0.008  0.6210000000000001
p14s10  -0.01533333333333333  0.604
p14s11  0.018000000000000002  0.5866666666666667
p15s11  0.008666666666666661  0.5443333333333333
p16s08  0.05299999999999999  0.655
p16s12  -0.07166666666666667  0.6636666666666667
p17s09  0.044666666666666674  0.638
p17s13  -0.067  0.642
p18s10  0.06000000000000001  0.6076666666666667
p18s14  -0.05400000000000001  0.6183333333333334
p19s11  0.184  0.6336666666666667
p19s15  -0.03266666666666667  0.5946666666666667
p20s12  -0.016  0.658
p20s16  -0.08366666666666667  0.6816666666666666
p20s17  -0.07066666666666667  0.639
p21s13  -0.0053333333333333245  0.6480000000000001
p21s18  -0.078  0.6576666666666667
p22s14  0.035333333333333335  0.601
p23s15  0.01866666666666667  0.5806666666666668
p23s19  -0.042666666666666665  0.5953333333333333
p24s16  -0.06466666666666668  0.7086666666666668
p25s17  -0.05366666666666667  0.6693333333333333
p26s18  -0.09933333333333333  0.6203333333333334
p27s19  -0.028666666666666667  0.6103333333333334
p28s20  -0.11066666666666668  0.6080000000000001
p29s21  -0.02466666666666667  0.5753333333333334
p30s22  -0.02266666666666667  0.6163333333333333
p31s23  -0.028  0.643
p32s20  -0.08333333333333333  0.5810000000000001
p32s24  0.017666666666666664  0.5750000000000001
p33s25  0.019000000000000003  0.6306666666666667
p34s21  -0.1426666666666667  0.6666666666666667
p34s26  -0.007666666666666667  0.652
p35s22  -0.16033333333333336  0.682
p35s23  -0.108  0.6643333333333333
p35s27  -0.025999999999999995  0.659
p36s24  -0.03666666666666667  0.5726666666666668
p36s28  -0.033666666666666664  0.5516666666666666
p37s25  -0.06666666666666667  0.6266666666666667
p37s29  0.051666666666666666  0.629
p38s26  -0.06766666666666667  0.6443333333333333
p38s30  0.034333333333333334  0.637
p39s27  -0.08466666666666667  0.6593333333333333
p39s31  0.034333333333333334  0.6493333333333333
p40s28  0.06733333333333333  0.6133333333333334
p41s28  -0.023000000000000013  0.5873333333333334
p41s29  -0.004666666666666662  0.6076666666666667
p42s29  -0.003999999999999976  0.617
p42s30  0.0016666666666666683  0.6356666666666667
p43s30  -0.004333333333333342  0.6423333333333334
p43s31  -0.009000000000000005  0.647
p44s28  -0.051666666666666666  0.6163333333333334
p44s32  0.029333333333333336  0.5736666666666667
p45s29  -0.04133333333333334  0.6083333333333334
p45s33  0.056  0.6313333333333334
p46s30  -0.051333333333333335  0.636
p46s34  0.06333333333333334  0.642
p47s31  -0.05966666666666668  0.6533333333333334
p47s35  0.06466666666666668  0.662
p48s32  -0.03933333333333333  0.5423333333333334
p49s33  -0.004333333333333319  0.6046666666666667
p49s36  0.06233333333333334  0.6133333333333334
p50s34  0.013333333333333334  0.658
p50s37  0.000999999999999994  0.5993333333333334
p51s35  0.008333333333333333  0.6516666666666667
p51s38  0.08900000000000001  0.6456666666666667
p51s39  0.09133333333333334  0.674
p52s36  0.04533333333333333  0.5876666666666667
p53s37  0.206  0.6413333333333333
p54s38  0.05299999999999999  0.672
p55s39  0.05666666666666667  0.6653333333333333
