p00s00  -0.004666666666666667  1.8353333333333333
p01s01  0.033  1.8603333333333332
p02s02  0.010333333333333335  1.8656666666666666
p03s03  -0.07266666666666667  1.7863333333333336
p04s00  -0.014666666666666668  1.8563333333333332
p04s01  -0.03533333333333333  1.824
p04s04  0.018000000000000002  1.8556666666666666
p05s02  -0.016000000000000004  1.8503333333333336
p05s05  -0.007999999999999998  1.8469999999999998
p06s03  -0.04866666666666668  1.8076666666666668
p06s06  -0.006999999999999998  1.840666666666667
p07s07  -0.008  1.8233333333333335
p08s04  0.018333333333333333  1.8553333333333333
p08s08  0.015999999999999997  1.8306666666666664
p09s05  0.012999999999999998  1.8473333333333335
p09s09  0.02266666666666667  1.8393333333333333
p10s06  0.003666666666666668  1.8433333333333333
p10s10  0.02333333333333333  1.8343333333333334
p11s07  0.016  1.8416666666666668
p11s11  0.01433333333333334  1.876
p12s08  -0.006999999999999998  1.833
p12s09  0.0009999999999999998  1.848
p13s09  -0.0033333333333333335  1.847333333333333
p13s10  0.016333333333333335  1.8376666666666668
p14s10  0.0003333333333333371  1.8206666666666669
p14s11  0.02466666666666667  1.8016666666666667
p15s11  0.04533333333333334  1.7400000000000002
p16s08  -0.017  1.8453333333333333
p16s12  -0.01966666666666667  1.8483333333333334
p17s09  -0.036999999999999984  1.847333333333333
p17s13  -0.010666666666666672  1.8393333333333333
p18s10  -0.036000000000000004  1.8436666666666666
p18s14  -0.004666666666666673  1.838
p19s11  0.133  1.8513333333333335
p19s15  0.012666666666666672  1.8360000000000003
p20s12  -0.03066666666666667  1.8376666666666668
p20s16  0.02066666666666667  1.8330000000000002
p20s17  0.028666666666666667  1.8243333333333334
p21s13  -0.01499999999999999  1.8410000000000002
p21s18  0.016333333333333328  1.8403333333333336
p22s14  -0.025666666666666664  1.8593333333333333
p23s15  0.013333333333333334  1.8826666666666667
p23s19  0.03266666666666667  1.8136666666666668
p24s16  -0.02266666666666667  1.8763333333333332
p25s17  0.007999999999999998  1.824
p26s18  0.034333333333333334  1.7870000000000001
p27s19  0.04933333333333334  1.819666666666667
p28s20  -0.03566666666666667  1.8509999999999998
p29s21  0.004000000000000002  1.779666666666667
p30s22  0.038000000000000006  1.829
p31s23  0.03933333333333334  1.817333333333333
p32s20  0.03366666666666667  1.8126666666666669
p32s24  0.005666666666666667  1.8293333333333333
p33s25  0.030333333333333337  1.8456666666666666
p34s21  -0.03366666666666667  1.8246666666666667
p34s26  -0.001333333333333337  1.852
p35s22  -0.020666666666666667  1.8516666666666668
p35s23  0.02333333333333333  1.8353333333333337
p35s27  -0.01866666666666667  1.844
p36s24  -0.027  1.8336666666666668
p36s28  -0.034666666666666665  1.855
p37s25  -0.001333333333333334  1.8406666666666665
p37s29  -0.035  1.836666666666667
p38s26  -0.008000000000000004  1.8473333333333335
p38s30  -0.03133333333333334  1.8423333333333336
p39s27  -0.02  1.8499999999999999
p39s31  -0.02033333333333334  1.831666666666667
p40s28  0.08266666666666667  1.8123333333333334
p41s28  -0.01433333333333335  1.8276666666666668
p41s29  -0.006999999999999992  1.8503333333333336
p42s29  -0.013333333333333346  1.8270000000000002
p42s30  0.007666666666666678  1.8406666666666665
p43s30  -0.0050000000000000044  1.8453333333333333
p43s31  0.009666666666666667  1.833
p44s28  0.059666666666666666  1.8473333333333335
p44s32  -0.042333333333333334  1.798
p45s29  0.04566666666666666  1.8333333333333333
p45s33  -0.002333333333333331  1.8493333333333333
p46s30  0.03233333333333334  1.845
p46s34  0.009999999999999998  1.844
p47s31  0.021  1.8463333333333332
p47s35  0.021333333333333336  1.8466666666666665
p48s32  -0.05566666666666667  1.7916666666666667
p49s33  0.002333333333333331  1.8356666666666666
p49s36  -0.02733333333333333  1.872666666666667
p50s34  0.037000000000000005  1.8636666666666668
p50s37  -0.05233333333333333  1.8053333333333332
p51s35  0.019333333333333334  1.8370000000000002
p51s38  -0.023999999999999994  1.8593333333333333
p51s39  -0.012  1.8286666666666667
p52s36  0.03433333333333333  1.852
p53s37  0.12366666666666667  1.804
p54s38  0.04266666666666667  1.8416666666666668
p55s39  0.08  1.8359999999999999
