0000  -0.0665714285714  2.04885714286
0001  -0.0635714285714  2.02657142857
0002  -0.115  1.99914285714
0003  0.0157142857143  2.03928571429
0104  0.0758571428571  2.07342857143
0105  0.0661428571429  2.03328571429
0106  -0.000857142857143  2.05214285714
0107  0.108428571429  2.01157142857
0212  0.0417142857143  2.06542857143
0213  -0.0618571428571  2.08942857143
0214  -0.0774285714286  2.06371428571
0215  -0.063  2.006
0308  0.0617142857143  2.07842857143
0309  -0.0342857142857  2.07442857143
0310  0.0467142857143  1.98371428571
0311  0.0585714285714  2.01157142857
