p00s00  0.040309  0.701623333333
p01s01  0.0497433333333  0.66194
p02s02  0.0245640666667  0.620282833333
p03s03  0.110006666667  0.655192666667
p04s00  0.0491466666667  0.6941
p04s01  -0.0034  0.67322
p05s01  0.18756  0.674948333333
p05s06  0.0296733333333  0.636818
p06s02  0.158012666667  0.641832
p06s06  0.0349293333333  0.514546666667
p06s07  0.0532166666667  0.620981666667
p07s03  -0.121443333333  0.494925333333
p07s07  0.0447866666667  0.678206
p08s04  -0.0360633333333  0.641503666667
p08s08  0.07912  0.628333333333
p09s05  -0.0173533333333  0.613427333333
p09s09  0.0585026666667  0.602588
p10s06  -0.0527633333333  0.572015
p11s07  0.0280366666667  0.580853333333
p11s11  0.0175933333333  0.50973
p12s08  -0.00448666666667  0.665930333333
p12s09  0.0105266666667  0.652813333333
p13s09  0.00234333333333  0.627407666667
p13s10  0.00747  0.598764666667
p14s10  -0.00424666666667  0.613203333333
p14s11  -0.0132233333333  0.571809333333
p15s11  -0.0707566666667  0.526433333333
p16s08  0.0952366666667  0.63827
p16s12  -0.0566333333333  0.64432
p17s09  0.0600633333333  0.613861
p17s13  -0.0448323333333  0.62468
p18s10  0.0403933333333  0.59481
p18s14  -0.0507723333333  0.59521
p19s11  0.0272966666667  0.630983333333
p19s15  -0.03801  0.528018333333
p20s16  -0.0186833333333  0.700643333333
p20s17  -0.0737133333333  0.560579333333
p21s14  -0.0221766666667  0.660430333333
p21s17  -0.0625433333333  0.687300876667
p21s18  0.00931666666667  0.591724666667
p22s15  -0.089196  0.623773333333
p22s19  -0.0814466666667  0.529744666667
p23s15  -0.174646666667  0.575513333333
p24s16  -0.204973333333  0.6596723
p25s17  -0.0418733333333  0.587966666667
p26s18  -0.03164  0.628447333333
p27s19  0.01782  0.548281333333
p28s20  0.0141203333333  0.627939666667
p29s21  -0.0706233333333  0.547404666667
p30s22  -0.0840416666667  0.650300333333
p31s23  -0.0998033333333  0.671051
p32s20  0.01806  0.747931333333
p32s24  -0.158511  0.425049666667
p33s21  -0.0204819  0.653940666667
p33s24  0.0551033333333  0.569003
p34s21  -0.0377433333333  0.718785
p34s22  0.00637333333333  0.677993666667
p34s25  -0.04113  0.739378666667
p35s22  -0.0517566666667  0.651742666667
p35s23  -0.04433  0.500128
p36s24  0.02748  0.5217525
p36s28  -0.0710333333333  0.587671666667
p37s25  0.0385966666667  0.571094666667
p38s26  -0.0588766666667  0.628217666667
p38s30  0.0275203333333  0.58412
p39s27  -0.0469896666667  0.6773512
p39s31  0.00876666666667  0.683984333333
p40s28  -0.0272466666667  0.731582333333
p41s28  -0.00178666666667  0.549404333333
p41s29  -0.0465333333333  0.595004733333
p42s29  0.00534333333333  0.571324
p42s30  -0.00767333333333  0.623457408667
p43s30  -0.005007  0.630425333333
p43s31  0.00613666666667  0.659182666667
p44s28  -0.11176  0.596311666667
p44s32  0.0307633333333  0.587244
p45s33  -0.06366  0.592616666667
p46s30  0.0519166666667  0.575513333333
p46s34  -0.0213493333333  0.623910333333
p47s31  0.0590503333333  0.624909666667
p47s35  -0.04484  0.650791666667
p48s32  0.042874  0.65685
p49s32  0.06394  0.348473333333
p49s33  -0.0281936666667  0.5724518
p49s36  0.103423333333  0.546503333333
p50s33  0.0750166666667  0.580563333333
p50s37  -0.00467333333333  0.690008666667
p50s38  0.122306666667  0.629316666667
p51s38  -0.0435906666667  0.681066666667
p51s39  0.102841666667  0.730324666667
p52s36  0.0464233333333  0.541524333333
p53s37  0.06686  0.676830666667
p54s38  0.0516927  0.651951666667
p55s39  0.0825033333333  0.683543333333
