p00s00  -0.021285714285714286  1.3925714285714288
p00s01  -0.09057142857142858  1.3925714285714286
p00s02  -0.020285714285714292  1.418714285714286
p00s03  -0.01142857142857143  1.3211428571428572
p01s04  -0.036000000000000004  1.4422857142857144
p01s05  -0.03542857142857143  1.4208571428571428
p01s06  0.026000000000000002  1.348857142857143
p01s07  0.07771428571428571  1.336857142857143
p02s12  0.0008571428571428421  1.3840000000000001
p02s13  -0.00428571428571428  1.4524285714285714
p02s14  -0.07171428571428572  1.4300000000000002
p02s15  0.025857142857142856  1.447142857142857
p03s08  -0.018428571428571426  1.4147142857142858
p03s09  0.006857142857142857  1.37
p03s10  -0.012428571428571433  1.375
p03s11  0.016428571428571428  1.449571428571429
