0000  1.8347588  0.354385
0001  1.7347  0.194941066667
0002  1.758812  0.351096666667
0003  1.89591566667  -0.135116666667
0104  1.71817666667  -0.221414333333
0105  1.97145333333  -0.298964866667
0106  1.95623033333  -0.16019
0107  1.73603533333  -0.28199
0212  1.94268  0.248093333333
0213  1.85202666667  0.211413333333
0214  1.77958333333  0.181936666667
0215  1.903172  0.121356
0308  1.79075266667  -0.274773333333
0309  1.93638666667  0.307068333333
0310  1.77291  -0.247839
0311  1.75443333333  -0.43723
