0000  -0.0601428571429  2.01942857143
0001  -0.0687142857143  2.04128571429
0002  -0.0601428571429  2.08485714286
0003  0.046  2.07785714286
0104  0.0735714285714  2.04242857143
0105  0.0555714285714  2.01614285714
0106  -0.024  2.105
0107  0.0621428571429  2.08457142857
0212  0.0117142857143  2.05328571429
0213  -0.108857142857  2.00785714286
0214  -0.0684285714286  2.05385714286
0215  -0.0784285714286  2.06057142857
0308  0.107142857143  2.012
0309  -0.00728571428571  2.047
0310  0.0788571428571  2.07457142857
0311  0.077  2.12757142857
