0.9915356416071021,-25.0,0.014295526736342337
0.9856297243462637,-24.15,0.014370902447671694
0.9787420269848855,-23.299999999999997,0.0138464678196109
0.9734237915644598,-22.449999999999996,0.01367959355233626
0.9644144765225825,-21.599999999999994,0.013591318697220894
0.9588604434072133,-20.749999999999993,0.013264073000943205
0.9547774355082477,-19.89999999999999,0.013124612331906909
0.9508030248502122,-19.04999999999999,0.013023896678109702
0.9464295095789025,-18.19999999999999,0.012874056706357209
0.9398109860518782,-17.349999999999987,0.012794173274346728
0.9357886541928258,-16.499999999999986,0.012566654130903085
0.932886761469115,-15.649999999999986,0.012475318758517607
0.9276093355272883,-14.799999999999986,0.01232529290170137
0.9238215521282742,-13.949999999999987,0.012205533928630864
0.9201427551452604,-13.099999999999987,0.012113646254481433
0.9163331383981662,-12.249999999999988,0.01200474710262256
0.9148183308413537,-11.399999999999988,0.011940364904753017
0.9116244491239858,-10.549999999999988,0.011824667974661026
0.909289461308124,-9.699999999999989,0.011785337223398733
0.9060012640480836,-8.849999999999989,0.011692608381401666
0.9035653139008866,-7.999999999999989,0.011638358163564953
0.9017341779697402,-7.14999999999999,0.011451919319921849
0.900111809328239,-6.29999999999999,0.01155152634428081
0.899869665557219,-5.44999999999999,0.011535389906071331
0.8990908077940852,-4.599999999999991,0.011571333853147528
0.8993353634619284,-3.7499999999999907,0.011472489077020882
0.8995130337345706,-2.8999999999999906,0.011428394913494996
0.8975375851343366,-2.0499999999999905,0.011402238833678063
0.8962858215212353,-1.1999999999999904,0.011361970953490516
0.8944305063221443,-0.34999999999999043,0.011337592630808878
0.8950263767200712,0.5000000000000095,0.011336684887279524
0.896011020396263,1.3500000000000094,0.011343015938255218
0.8979125224635579,2.2000000000000095,0.011357413154808068
0.8986228246634049,3.0500000000000096,0.011413272958174802
0.8989574952777085,3.9000000000000097,0.011386956707036088
0.9001561432224231,4.75000000000001,0.011390746492010217
0.9022037465377908,5.600000000000009,0.011413162778613895
0.9047845051765893,6.450000000000009,0.01148277998004992
0.906299649738009,7.300000000000009,0.01150931554880914
0.9090839281744346,8.15000000000001,0.011586485073260919
0.910446740528903,9.000000000000009,0.011629273492355896
0.9103682848644125,9.850000000000009,0.011567184071837223
0.9121687885527946,10.700000000000008,0.011674405240476431
0.9168939930960188,11.550000000000008,0.011796003725382805
0.9201396288657515,12.400000000000007,0.011855138101493906
0.9225059059808512,13.250000000000007,0.011929332814537081
0.9261210501823882,14.100000000000007,0.011992713611768843
0.9314808003316186,14.950000000000006,0.012148542254178994
0.9371993621066912,15.800000000000006,0.01226347136452889
0.9405170634002201,16.650000000000006,0.012355978880288901
0.9444813526078341,17.500000000000007,0.01251926454495895
0.9506153041552795,18.35000000000001,0.012715290050124449
0.9575012421174989,19.20000000000001,0.012857234599183935
0.9647272409831413,20.05000000000001,0.012897449486875818
0.9701339692626212,20.900000000000013,0.01309046214324833
0.976786317787119,21.750000000000014,0.013298342111897522
0.9806312847383465,22.600000000000016,0.013505892579876786
0.9910768908602491,23.450000000000017,0.013632801602745194
1.0002323347806932,24.30000000000002,0.013845434156812247
1.006713741520946,25.15000000000002,0.013960470306441706
1.0189528685462892,26.00000000000002,0.014377316048289353
