0.6593172899644016,-25.0,0.016702691039163765
0.6674033443472943,-24.15,0.018123226834458415
0.6565302177407029,-23.299999999999997,0.016992456580442412
0.6559065875773942,-22.449999999999996,0.0172348277919731
0.652830896547353,-21.599999999999994,0.02202492860089775
0.6542526534922508,-20.749999999999993,0.017364882986404647
0.6511263744984951,-19.89999999999999,0.017179507607190746
0.6539386107879318,-19.04999999999999,0.017326390783877287
0.6414952839777245,-18.19999999999999,0.016246247554712986
0.6390019695588112,-17.349999999999987,0.015028398943744371
0.6425954093569122,-16.499999999999986,0.016682027219232835
0.6413187675457769,-15.649999999999986,0.016514379088956345
0.63789000965345,-14.799999999999986,0.01625899308428574
0.6288873044279095,-13.949999999999987,0.013896608229410794
0.6248093024739189,-13.099999999999987,0.014717948066120532
0.6226744528746166,-12.249999999999988,0.015298183020455563
0.6206619068452507,-11.399999999999988,0.015347344288749606
0.6212359913805623,-10.549999999999988,0.015636498279676267
0.6194861094562972,-9.699999999999989,0.01583988023312961
0.6182796900796552,-8.849999999999989,0.015074488150301176
0.6161717224597583,-7.999999999999989,0.014796204650039498
0.6143418176802908,-7.14999999999999,0.01616238807968161
0.6141463627341421,-6.29999999999999,0.014735204594817326
0.6130036147134622,-5.44999999999999,0.014931254239908888
0.6225359239423779,-4.599999999999991,0.015574535772038364
0.6118204165321974,-3.7499999999999907,0.021372611815978573
0.6137547833677784,-2.8999999999999906,0.015050718761128208
0.6120266228612723,-2.0499999999999905,0.014846516413357347
0.611872318920089,-1.1999999999999904,0.015015172614977921
0.6119272022468871,-0.34999999999999043,0.015006001158517702
0.6095581873412605,0.5000000000000095,0.014732282863161689
0.6239533167742112,1.3500000000000094,0.015664256148334946
0.6075091496583126,2.2000000000000095,0.014610059640681794
0.6215391157787803,3.0500000000000096,0.015691314438706402
0.6232202539745376,3.9000000000000097,0.015611237566295165
0.6096908967063217,4.75000000000001,0.014618505544211497
0.6102904519493261,5.600000000000009,0.014685380987734637
0.6099434907703155,6.450000000000009,0.014647586994572826
0.6104145529880295,7.300000000000009,0.014665577385652667
0.6093250298445014,8.15000000000001,0.015302480310211248
0.6106475573519016,9.000000000000009,0.015290628441023146
0.6101352753315311,9.850000000000009,0.013850830157395445
0.621350118219733,10.700000000000008,0.01564078655221677
0.6094623336692099,11.550000000000008,0.014298666237824388
0.6222448551281199,12.400000000000007,0.015691092254924717
0.6243268733055575,13.250000000000007,0.015626490716966042
0.6142583869510168,14.100000000000007,0.014928209153198377
0.6133745022855194,14.950000000000006,0.013988279758960656
0.617883789281499,15.800000000000006,0.014872512986912285
0.6293194289308569,16.650000000000006,0.015941031736476662
0.6241203782230129,17.500000000000007,0.01579632205670624
0.6316545304016594,18.35000000000001,0.015837359148588685
0.6325696840911809,19.20000000000001,0.015968754024794328
0.634582428990402,20.05000000000001,0.01607210537016244
0.6297791793040532,20.900000000000013,0.01600807701627738
0.6367703799844943,21.750000000000014,0.01623323362763335
0.6329443321649242,22.600000000000016,0.01587297311932299
0.6377895446089341,23.450000000000017,0.01699062287709509
0.6384706087706896,24.30000000000002,0.016187637475631633
0.644901027988348,25.15000000000002,0.02504622487057402
0.650396331057887,26.00000000000002,0.016230318350155863
