1.3431937359229724,-25.0,0.13790570861552184
1.1807810441815034,-24.15,0.1324503001620367
1.1236821291079222,-23.299999999999997,0.10826751855396695
1.0352932967691626,-22.449999999999996,0.08245770893342384
0.9905785338108415,-21.599999999999994,0.02564117606521847
0.9424382911247079,-20.749999999999993,0.05680733127183099
0.9024839403912905,-19.89999999999999,0.05131098375763387
0.8614385454774511,-19.04999999999999,0.04272081426444754
0.8188723304701835,-18.19999999999999,0.033008938817504545
0.7897684247804203,-17.349999999999987,0.03011598610163296
0.7600830640400138,-16.499999999999986,0.02489326189079103
0.7463620304828238,-15.649999999999986,0.026672451285181423
0.7307609414617635,-14.799999999999986,0.024960253286398063
0.718586123310586,-13.949999999999987,0.02426959586252986
0.6857878106271188,-13.099999999999987,0.019097134289298216
0.6719357560972974,-12.249999999999988,0.017432108382789458
0.6562592428010353,-11.399999999999988,0.017556938451412114
0.6421998855027664,-10.549999999999988,0.0164260269764251
0.6353408921819046,-9.699999999999989,0.0159092275609952
0.623001609959527,-8.849999999999989,0.014712815137790217
0.6280479916547952,-7.999999999999989,0.015181180068260063
0.6072057345584272,-7.14999999999999,0.013469425092698108
0.5990232162126231,-6.29999999999999,0.0133280111961543
0.591102867889576,-5.44999999999999,0.013077220700602727
0.5867458256513465,-4.599999999999991,0.012630357360632146
0.5836978372478613,-3.7499999999999907,0.012431345994840961
0.5961159504413629,-2.8999999999999906,0.013060614349301709
0.5785285609431577,-2.0499999999999905,0.011430881810095998
0.581620654313216,-1.1999999999999904,0.012828427987554031
0.5822402139117584,-0.34999999999999043,0.01154228121919389
0.5945574360430237,0.5000000000000095,0.01275961558019615
0.5970290320314824,1.3500000000000094,0.012735900869900384
0.5928907870858526,2.2000000000000095,0.013092323989046376
0.6059966258371168,3.0500000000000096,0.013293448822728557
0.6114743285525823,3.9000000000000097,0.013541392608759225
0.6078125120334152,4.75000000000001,0.013233373108614898
0.6122222948871516,5.600000000000009,0.013283057116591453
0.6271320786752734,6.450000000000009,0.014496374080291159
0.6315002289710759,7.300000000000009,0.014551538881034137
0.6374205599933266,8.15000000000001,0.014877863192246155
0.6417976442944866,9.000000000000009,0.01411862123312678
0.664143924891141,9.850000000000009,0.016815119653078445
0.6731586335181885,10.700000000000008,0.017270626979107476
0.6930886345547421,11.550000000000008,0.01850976077064395
0.7221877068690784,12.400000000000007,0.021017108792687117
0.7365633934796676,13.250000000000007,0.03068457917451616
0.7592809629836165,14.100000000000007,0.024305255403272504
0.7883960525894907,14.950000000000006,0.02501791232263409
0.8149828338090391,15.800000000000006,0.03117559672672106
0.8368715361804168,16.650000000000006,0.03210765929811248
0.8691883615565212,17.500000000000007,0.03633358472877125
0.9075624644861835,18.35000000000001,0.03833382676194496
0.9214462232363403,19.20000000000001,0.04874997992378949
0.9570569007579703,20.05000000000001,0.05303427513014962
1.0049946582673857,20.900000000000013,0.07264257879914264
1.0639574347655734,21.750000000000014,0.07302941308192593
1.1013427545324788,22.600000000000016,0.08434388793274167
1.1944078768382855,23.450000000000017,0.0995038853544215
1.3118670764493934,24.30000000000002,0.31221853805959077
1.4401547543192608,25.15000000000002,0.021516327975874265
1.5657656712708052,26.00000000000002,0.3259820384384624
