p00s00  1.8134285714285716  0.18442857142857144
p00s01  1.808714285714286  0.02085714285714286
p00s02  1.8452857142857144  0.133
p00s03  1.9315714285714285  -0.05285714285714286
p01s04  1.805857142857143  0.03442857142857143
p01s05  1.8175714285714286  -0.15342857142857144
p01s06  1.9282857142857142  0.054285714285714284
p01s07  1.8504285714285718  -0.17785714285714288
p02s12  1.9337142857142857  -0.047142857142857146
p02s13  1.8514285714285712  0.1688571428571429
p02s14  1.8157142857142856  -0.008000000000000002
p02s15  1.8240000000000003  0.16771428571428573
p03s08  1.8690000000000002  -0.12585714285714286
p03s09  1.9508571428571433  0.05371428571428571
p03s10  1.8277142857142856  -0.18085714285714288
p03s11  1.8217142857142856  0.004428571428571428
