0000  -0.0627142857143  2.06028571429
0001  -0.0638571428571  2.04085714286
0002  -0.125  2.01614285714
0003  0.022  2.05557142857
0104  0.0708571428571  2.08657142857
0105  0.0791428571429  2.04185714286
0106  0.003  2.06757142857
0107  0.115857142857  2.01957142857
0212  0.0444285714286  2.08542857143
0213  -0.0348571428571  2.09371428571
0214  -0.0792857142857  2.08271428571
0215  -0.0572857142857  2.019
0308  0.0631428571429  2.08
0309  -0.0288571428571  2.09142857143
0310  0.0338571428571  2.02914285714
0311  0.0727142857143  2.07771428571
