richDetector            = 1
DB updated              = True
resulting DB            = v16
converged               = True
Number of iterations    = 2
Final iteration label   = _i1
Number of events        = 2021236
runs                    = 206400  206402  206404  206406  206407  206409  206410  206412  206415  206416  206417  206418  206419  206420  206421  206422  206423  206425  206427  206428  206429
fills                   =   6594    6594    6594    6594    6594    6594    6594    6594    6594    6594    6594    6594    6594    6594    6594    6594    6594    6594    6594    6594    6594
polarities              =   DOWN    DOWN    DOWN    DOWN    DOWN    DOWN    DOWN    DOWN    DOWN    DOWN    DOWN    DOWN    DOWN    DOWN    DOWN    DOWN    DOWN    DOWN    DOWN    DOWN    DOWN
dataVariant             = Collision18
savedir                 = /group/online/AligWork/MirrorAlignments/Rich1/20180424_164201/
magnFactorsMode         = 2
magnifDir               = /group/rich/AlignmentFiles/MagnifFactors/Rich1/20170612_004007/
xmlMDCS                 =
combAndMirrSubsets      = /group/rich/sw/cmtuser/AlignmentRelease/Rich/RichMirrorAlignmentOnline/files/Rich1CombAndMirrSubsets.txt
LHCbA config time       = 00:03:43.86
Alignment time          = 01:06:57.67
CK angle resolution     = 1.6516
         error          = 0.0026
startXMLFile            =
compareXMLFile          =

autoUpdate (initial)    = True
autoUpdateNoV           = False
testing                 = False
requiredEvents          = 1180000
minAverageBinPop        = 6
phiBinFactor            = 3
minFracPhiBinsPopulated = 0.8
deltaThetaWindow        = 8.0
combinFitMethod         = 5
solutionMethod          = 0
coeffCalibTilt          = 0.7
fixSinusoidShift        = 1
maxIterations           = 8
EvtMax                  = -1
regularizationMode      = 0
stopToleranceMode       = 1
nominalResolutionSigma  = 1.66
stopSigmaFraction       = 0
warningFactor           = 3
displayMode             = 1
stopTolerancePriY       = 0.03
stopTolerancePriZ       = 0.03
stopToleranceSecY       = 0.46
stopToleranceSecZ       = 0.37
nEventsList             = [2021886, 2020586]
CombinFit times         = ['00:01:04.40', '00:01:03.10']
MirrAlign times         = ['00:00:00.34', '00:00:00.34']
