0000   0  0.65
0001   0  0.65
0100   0  0.65
0101   0  0.65
0102   0  0.65
0201   0  0.65
0202   0  0.65
0203   0  0.65
0302   0  0.65
0303   0  0.65
0400   0  0.65
0401   0  0.65
0404   0  0.65
0405   0  0.65
0501   0  0.65
0502   0  0.65
0505   0  0.65
0506   0  0.65
0602   0  0.65
0603   0  0.65
0606   0  0.65
0607   0  0.65
0707   0  0.65
0804   0  0.65
0805   0  0.65
0808   0  0.65
0904   0  0.65
0905   0  0.65
0906   0  0.65
0909   0  0.65
0910   0  0.65
1005   0  0.65
1006   0  0.65
1007   0  0.65
1010   0  0.65
1011   0  0.65
1106   0  0.65
1107   0  0.65
1111   0  0.65
1208   0  0.65
1209   0  0.65
1309   0  0.65
1310   0  0.65
1410   0  0.65
1411   0  0.65
1511   0  0.65
1608   0  0.65
1612   0  0.65
1613   0  0.65
1709   0  0.65
1710   0  0.65
1712   0  0.65
1713   0  0.65
1714   0  0.65
1810   0  0.65
1811   0  0.65
1813   0  0.65
1814   0  0.65
1815   0  0.65
1911   0  0.65
1914   0  0.65
1915   0  0.65
2012   0  0.65
2013   0  0.65
2016   0  0.65
2017   0  0.65
2113   0  0.65
2114   0  0.65
2117   0  0.65
2118   0  0.65
2214   0  0.65
2215   0  0.65
2218   0  0.65
2219   0  0.65
2315   0  0.65
2416   0  0.65
2417   0  0.65
2516   0  0.65
2517   0  0.65
2518   0  0.65
2617   0  0.65
2618   0  0.65
2619   0  0.65
2718   0  0.65
2719   0  0.65
2820   0  0.65
2821   0  0.65
2920   0  0.65
2921   0  0.65
2922   0  0.65
3021   0  0.65
3022   0  0.65
3023   0  0.65
3122   0  0.65
3123   0  0.65
3224   0  0.65
3320   0  0.65
3321   0  0.65
3324   0  0.65
3325   0  0.65
3421   0  0.65
3422   0  0.65
3425   0  0.65
3426   0  0.65
3522   0  0.65
3523   0  0.65
3526   0  0.65
3527   0  0.65
3624   0  0.65
3625   0  0.65
3628   0  0.65
3724   0  0.65
3725   0  0.65
3726   0  0.65
3728   0  0.65
3729   0  0.65
3825   0  0.65
3826   0  0.65
3827   0  0.65
3829   0  0.65
3830   0  0.65
3926   0  0.65
3927   0  0.65
3931   0  0.65
4028   0  0.65
4128   0  0.65
4129   0  0.65
4229   0  0.65
4230   0  0.65
4330   0  0.65
4331   0  0.65
4428   0  0.65
4432   0  0.65
4433   0  0.65
4528   0  0.65
4529   0  0.65
4532   0  0.65
4533   0  0.65
4534   0  0.65
4629   0  0.65
4630   0  0.65
4633   0  0.65
4634   0  0.65
4635   0  0.65
4731   0  0.65
4734   0  0.65
4735   0  0.65
4832   0  0.65
4932   0  0.65
4933   0  0.65
4936   0  0.65
4937   0  0.65
5033   0  0.65
5034   0  0.65
5037   0  0.65
5038   0  0.65
5134   0  0.65
5135   0  0.65
5138   0  0.65
5139   0  0.65
5236   0  0.65
5237   0  0.65
5336   0  0.65
5337   0  0.65
5338   0  0.65
5437   0  0.65
5438   0  0.65
5439   0  0.65
5538   0  0.65
5539   0  0.65
