0000   -0.980   -0.044
0001   -0.758   -0.057
0100   -1.498   -0.038
0101   -1.039   -0.062
0102   -1.015    0.077
0201   -1.351    0.031
0202   -0.941    0.083
0203   -0.928    0.035
0302   -1.180   -0.170
0303   -0.776    0.177
0400   -1.377   -0.115
0401   -1.008   -0.234
0404   -1.139    0.095
0405   -1.021   -0.068
0501   -1.127   -0.112
0502   -0.741   -0.153
0505   -1.562   -0.235
0506   -0.987   -0.034
0602   -1.098    0.108
0603   -0.593    0.000
0606   -0.967   -0.086
0607   -0.957    0.169
0707   -0.849    0.079
0804   -1.257   -0.100
0805   -1.041   -0.092
0808   -1.265   -0.005
0904   -1.213   -0.365
0905   -1.081    0.014
0906   -0.859    0.002
0909   -1.040    0.021
0910   -0.745   -0.091
1005   -1.054   -0.090
1006   -0.886    0.001
1007   -0.783   -0.136
1010   -0.971   -0.035
1011   -0.957    0.112
1106   -1.050   -0.239
1107   -0.677   -0.202
1111   -0.788    0.172
1208   -1.206   -0.024
1209   -1.065    0.012
1309   -1.075    0.020
1310   -0.924    0.007
1410   -0.980   -0.044
1411   -0.918    0.022
1511   -1.067   -0.163
1608   -1.231    0.053
1612   -1.351   -0.005
1613   -1.040    0.019
1709   -1.135    0.094
1710   -1.001    0.022
1712   -1.111   -0.108
1713   -1.146    0.037
1714   -0.975   -0.002
1810   -1.045    0.080
1811   -1.011   -0.113
1813   -1.080    0.054
1814   -0.979    0.004
1815   -0.799    0.002
1911   -0.794   -0.099
1914   -1.145    0.307
1915   -0.828    0.091
2012   -1.283    0.043
2013   -1.149    0.058
2016   -1.282    0.216
2017   -1.243    0.003
2113   -1.104    0.127
2114   -0.926    0.064
2117   -1.204    0.101
2118   -1.055    0.038
2214   -0.844   -0.146
2215   -0.933    0.073
2218   -1.161    0.070
2219   -0.615   -0.032
2315   -0.607   -0.544
2416   -1.130    0.014
2417   -1.178    0.224
2516   -1.066    0.038
2517   -0.981    0.081
2518   -1.093    0.183
2617   -1.013    0.009
2618   -0.923    0.060
2619   -0.833    0.143
2718   -0.892   -0.044
2719   -0.926    0.192
2820   -0.773    0.292
2821   -0.901    0.425
2920   -0.986    0.158
2921   -1.108    0.206
2922   -1.194    0.611
3021   -1.145   -0.130
3022   -1.139    0.108
3023   -1.328    0.181
3122   -1.169    0.899
3123   -1.135    0.093
3224   -1.064    0.142
3320   -0.887    0.084
3321   -0.830    0.225
3324   -0.946   -0.062
3325   -0.971    0.163
3421   -1.176   -0.321
3422   -1.076    0.001
3425   -0.869    0.062
3426   -1.225   -0.088
3522   -1.088    0.093
3523   -1.159   -0.078
3526   -1.166   -0.033
3527   -1.184    0.007
3624   -0.868   -0.009
3625   -1.065    0.259
3628   -0.882   -0.014
3724   -0.733   -0.008
3725   -0.948    0.047
3726   -1.315    0.026
3728   -0.667    0.030
3729   -0.978    0.058
3825   -0.809    0.134
3826   -1.080    0.037
3827   -1.215   -0.003
3829   -1.559   -0.398
3830   -1.058   -0.025
3926   -1.466    0.041
3927   -1.203    0.095
3931   -1.126    0.011
4028   -0.758    0.600
4128   -0.839   -0.005
4129   -1.044   -0.040
4229   -0.937   -0.034
4230   -1.141    0.019
4330   -1.089    0.021
4331   -1.201    0.053
4428   -1.089   -0.016
4432   -0.820    0.013
4433   -0.862   -0.261
4528   -0.734    0.016
4529   -0.944   -0.024
4532   -0.889    0.014
4533   -0.919   -0.029
4534   -1.284   -0.186
4629   -0.698   -0.182
4630   -1.044   -0.000
4633   -0.807    0.011
4634   -1.091   -0.094
4635   -0.246    0.120
4731   -1.282    0.064
4734   -0.670   -0.141
4735   -1.199   -0.035
4832   -0.757   -0.117
4932   -0.885   -0.023
4933   -1.308   -0.262
4936   -0.832   -0.115
4937   -1.000   -0.103
5033   -0.960   -0.002
5034   -1.014   -0.096
5037   -1.023   -0.002
5038   -1.477   -0.099
5134   -1.465   -0.120
5135   -1.264   -0.080
5138   -1.236   -0.076
5139   -1.270    0.209
5236   -0.853   -0.242
5237   -0.958    0.074
5336   -0.765   -0.049
5337   -0.880   -0.218
5338   -1.085   -0.328
5437   -1.162   -0.014
5438   -1.030   -0.009
5439   -1.565   -0.210
5538   -1.442    0.134
5539   -1.203   -0.203
